{
    "dibujo":"false",
    "nombre":"pata1",
    "tras":{"X":"0","Y":"0,05","Z":"0",},
    "rot":{"X":"0","Y":"0","Z":"-0,25",},
    "sca":{"X":"0","Y":"0","Z":"0",},
    "frames":1,
 };
 {
    "dibujo":"false",
    "nombre":"pata2",
    "tras":{"X":"0","Y":"0,05","Z":"0",},
    "rot":{"X":"0","Y":"0","Z":"-0,25",},
    "sca":{"X":"0","Y":"0","Z":"0",},
    "frames":1,
 };
 {
    "dibujo":"false",
    "nombre":"pata1",
    "tras":{"X":"0","Y":"-0,05","Z":"0",},
    "rot":{"X":"0","Y":"0","Z":"0,5",},
    "sca":{"X":"0","Y":"0","Z":"0",},
    "frames":1,
 };
 {
    "dibujo":"true",
    "tras":{"X":"-0,05","Y":"0","Z":"0",},
    "rot":{"X":"0","Y":"0","Z":"0",},
    "sca":{"X":"0","Y":"0","Z":"0",},
    "frames":1,
};
{
    "dibujo":"false",
    "nombre":"pata3",
    "tras":{"X":"0","Y":"0,25","Z":"0",},
    "rot":{"X":"0","Y":"0","Z":"-0,25",},
    "sca":{"X":"0","Y":"0","Z":"0",},
    "frames":1,
 };
 {
    "dibujo":"false",
    "nombre":"pata4",
    "tras":{"X":"0","Y":"0,25","Z":"0",},
    "rot":{"X":"0","Y":"0","Z":"-0,25",},
    "sca":{"X":"0","Y":"0","Z":"0",},
    "frames":1,
 };
 {
    "dibujo":"false",
    "nombre":"pata4",
    "tras":{"X":"0","Y":"-0,45","Z":"0",},
    "rot":{"X":"0","Y":"0","Z":"0,5",},
    "sca":{"X":"0","Y":"0","Z":"0",},
    "frames":1,
 };
 {
    "dibujo":"false",
    "nombre":"pata1",
    "tras":{"X":"0","Y":"0","Z":"0",},
    "rot":{"X":"0","Y":"0","Z":"-0,25",},
    "sca":{"X":"0","Y":"0","Z":"0",},
    "frames":1,
 };
 {
    "dibujo":"false",
    "nombre":"pata2",
    "tras":{"X":"0","Y":"-0,05","Z":"0",},
    "rot":{"X":"0","Y":"0","Z":"0,25",},
    "sca":{"X":"0","Y":"0","Z":"0",},
    "frames":1,
 };
 {
    "dibujo":"false",
    "nombre":"pata3",
    "tras":{"X":"0","Y":"-0,25","Z":"0",},
    "rot":{"X":"0","Y":"0","Z":"0,25",},
    "sca":{"X":"0","Y":"0","Z":"0",},
    "frames":1,
 };
 {
    "dibujo":"false",
    "nombre":"pata4",
    "tras":{"X":"0","Y":"0,2","Z":"0",},
    "rot":{"X":"0","Y":"0","Z":"-0,25",},
    "sca":{"X":"0","Y":"0","Z":"0",},
    "frames":1,
 };
 {
    "dibujo":"false",
    "nombre":"pata1",
    "tras":{"X":"0","Y":"0,05","Z":"0",},
    "rot":{"X":"0","Y":"0","Z":"-0,25",},
    "sca":{"X":"0","Y":"0","Z":"0",},
    "frames":1,
 };
 {
    "dibujo":"false",
    "nombre":"pata2",
    "tras":{"X":"0","Y":"0,05","Z":"0",},
    "rot":{"X":"0","Y":"0","Z":"-0,25",},
    "sca":{"X":"0","Y":"0","Z":"0",},
    "frames":1,
 };
 {
    "dibujo":"false",
    "nombre":"pata1",
    "tras":{"X":"0","Y":"-0,05","Z":"0",},
    "rot":{"X":"0","Y":"0","Z":"0,5",},
    "sca":{"X":"0","Y":"0","Z":"0",},
    "frames":1,
 };
 {
    "dibujo":"true",
    "tras":{"X":"-0,05","Y":"0","Z":"0",},
    "rot":{"X":"0","Y":"0","Z":"0",},
    "sca":{"X":"0","Y":"0","Z":"0",},
    "frames":1,
};
{
    "dibujo":"false",
    "nombre":"pata3",
    "tras":{"X":"0","Y":"0,25","Z":"0",},
    "rot":{"X":"0","Y":"0","Z":"-0,25",},
    "sca":{"X":"0","Y":"0","Z":"0",},
    "frames":1,
 };
 {
    "dibujo":"false",
    "nombre":"pata4",
    "tras":{"X":"0","Y":"0,25","Z":"0",},
    "rot":{"X":"0","Y":"0","Z":"-0,25",},
    "sca":{"X":"0","Y":"0","Z":"0",},
    "frames":1,
 };
 {
    "dibujo":"false",
    "nombre":"pata4",
    "tras":{"X":"0","Y":"-0,45","Z":"0",},
    "rot":{"X":"0","Y":"0","Z":"0,5",},
    "sca":{"X":"0","Y":"0","Z":"0",},
    "frames":1,
 };
 {
    "dibujo":"false",
    "nombre":"pata1",
    "tras":{"X":"0","Y":"0","Z":"0",},
    "rot":{"X":"0","Y":"0","Z":"-0,25",},
    "sca":{"X":"0","Y":"0","Z":"0",},
    "frames":1,
 };
 {
    "dibujo":"false",
    "nombre":"pata2",
    "tras":{"X":"0","Y":"-0,05","Z":"0",},
    "rot":{"X":"0","Y":"0","Z":"0,25",},
    "sca":{"X":"0","Y":"0","Z":"0",},
    "frames":1,
 };
 {
    "dibujo":"false",
    "nombre":"pata3",
    "tras":{"X":"0","Y":"-0,25","Z":"0",},
    "rot":{"X":"0","Y":"0","Z":"0,25",},
    "sca":{"X":"0","Y":"0","Z":"0",},
    "frames":1,
 };
 {
    "dibujo":"false",
    "nombre":"pata4",
    "tras":{"X":"0","Y":"0,2","Z":"0",},
    "rot":{"X":"0","Y":"0","Z":"-0,25",},
    "sca":{"X":"0","Y":"0","Z":"0",},
    "frames":1,
 };
 {
    "dibujo":"false",
    "nombre":"pata1",
    "tras":{"X":"0","Y":"0,05","Z":"0",},
    "rot":{"X":"0","Y":"0","Z":"-0,25",},
    "sca":{"X":"0","Y":"0","Z":"0",},
    "frames":1,
 };
 {
    "dibujo":"false",
    "nombre":"pata2",
    "tras":{"X":"0","Y":"0,05","Z":"0",},
    "rot":{"X":"0","Y":"0","Z":"-0,25",},
    "sca":{"X":"0","Y":"0","Z":"0",},
    "frames":1,
 };
 {
    "dibujo":"false",
    "nombre":"pata1",
    "tras":{"X":"0","Y":"-0,05","Z":"0",},
    "rot":{"X":"0","Y":"0","Z":"0,5",},
    "sca":{"X":"0","Y":"0","Z":"0",},
    "frames":1,
 };
 {
    "dibujo":"true",
    "tras":{"X":"-0,05","Y":"0","Z":"0",},
    "rot":{"X":"0","Y":"0","Z":"0",},
    "sca":{"X":"0","Y":"0","Z":"0",},
    "frames":1,
};
{
    "dibujo":"false",
    "nombre":"pata3",
    "tras":{"X":"0","Y":"0,25","Z":"0",},
    "rot":{"X":"0","Y":"0","Z":"-0,25",},
    "sca":{"X":"0","Y":"0","Z":"0",},
    "frames":1,
 };
 {
    "dibujo":"false",
    "nombre":"pata4",
    "tras":{"X":"0","Y":"0,25","Z":"0",},
    "rot":{"X":"0","Y":"0","Z":"-0,25",},
    "sca":{"X":"0","Y":"0","Z":"0",},
    "frames":1,
 };
 {
    "dibujo":"false",
    "nombre":"pata4",
    "tras":{"X":"0","Y":"-0,45","Z":"0",},
    "rot":{"X":"0","Y":"0","Z":"0,5",},
    "sca":{"X":"0","Y":"0","Z":"0",},
    "frames":1,
 };
 {
    "dibujo":"false",
    "nombre":"pata1",
    "tras":{"X":"0","Y":"0","Z":"0",},
    "rot":{"X":"0","Y":"0","Z":"-0,25",},
    "sca":{"X":"0","Y":"0","Z":"0",},
    "frames":1,
 };
 {
    "dibujo":"false",
    "nombre":"pata2",
    "tras":{"X":"0","Y":"-0,05","Z":"0",},
    "rot":{"X":"0","Y":"0","Z":"0,25",},
    "sca":{"X":"0","Y":"0","Z":"0",},
    "frames":1,
 };
 {
    "dibujo":"false",
    "nombre":"pata3",
    "tras":{"X":"0","Y":"-0,25","Z":"0",},
    "rot":{"X":"0","Y":"0","Z":"0,25",},
    "sca":{"X":"0","Y":"0","Z":"0",},
    "frames":1,
 };
 {
    "dibujo":"false",
    "nombre":"pata4",
    "tras":{"X":"0","Y":"0,2","Z":"0",},
    "rot":{"X":"0","Y":"0","Z":"-0,25",},
    "sca":{"X":"0","Y":"0","Z":"0",},
    "frames":1,
 };
 {
    "dibujo":"false",
    "nombre":"pata1",
    "tras":{"X":"0","Y":"0,05","Z":"0",},
    "rot":{"X":"0","Y":"0","Z":"-0,25",},
    "sca":{"X":"0","Y":"0","Z":"0",},
    "frames":1,
 };
 {
    "dibujo":"false",
    "nombre":"pata2",
    "tras":{"X":"0","Y":"0,05","Z":"0",},
    "rot":{"X":"0","Y":"0","Z":"-0,25",},
    "sca":{"X":"0","Y":"0","Z":"0",},
    "frames":1,
 };
 {
    "dibujo":"false",
    "nombre":"pata1",
    "tras":{"X":"0","Y":"-0,05","Z":"0",},
    "rot":{"X":"0","Y":"0","Z":"0,5",},
    "sca":{"X":"0","Y":"0","Z":"0",},
    "frames":1,
 };
 {
    "dibujo":"true",
    "tras":{"X":"-0,05","Y":"0","Z":"0",},
    "rot":{"X":"0","Y":"0","Z":"0",},
    "sca":{"X":"0","Y":"0","Z":"0",},
    "frames":1,
};
{
    "dibujo":"false",
    "nombre":"pata3",
    "tras":{"X":"0","Y":"0,25","Z":"0",},
    "rot":{"X":"0","Y":"0","Z":"-0,25",},
    "sca":{"X":"0","Y":"0","Z":"0",},
    "frames":1,
 };
 {
    "dibujo":"false",
    "nombre":"pata4",
    "tras":{"X":"0","Y":"0,25","Z":"0",},
    "rot":{"X":"0","Y":"0","Z":"-0,25",},
    "sca":{"X":"0","Y":"0","Z":"0",},
    "frames":1,
 };
 {
    "dibujo":"false",
    "nombre":"pata4",
    "tras":{"X":"0","Y":"-0,45","Z":"0",},
    "rot":{"X":"0","Y":"0","Z":"0,5",},
    "sca":{"X":"0","Y":"0","Z":"0",},
    "frames":1,
 };
 {
    "dibujo":"false",
    "nombre":"pata1",
    "tras":{"X":"0","Y":"0","Z":"0",},
    "rot":{"X":"0","Y":"0","Z":"-0,25",},
    "sca":{"X":"0","Y":"0","Z":"0",},
    "frames":1,
 };
 {
    "dibujo":"false",
    "nombre":"pata2",
    "tras":{"X":"0","Y":"-0,05","Z":"0",},
    "rot":{"X":"0","Y":"0","Z":"0,25",},
    "sca":{"X":"0","Y":"0","Z":"0",},
    "frames":1,
 };
 {
    "dibujo":"false",
    "nombre":"pata3",
    "tras":{"X":"0","Y":"-0,25","Z":"0",},
    "rot":{"X":"0","Y":"0","Z":"0,25",},
    "sca":{"X":"0","Y":"0","Z":"0",},
    "frames":1,
 };
 {
    "dibujo":"false",
    "nombre":"pata4",
    "tras":{"X":"0","Y":"0,2","Z":"0",},
    "rot":{"X":"0","Y":"0","Z":"-0,25",},
    "sca":{"X":"0","Y":"0","Z":"0",},
    "frames":1,
 };
 {
    "dibujo":"false",
    "nombre":"pata1",
    "tras":{"X":"0","Y":"0,05","Z":"0",},
    "rot":{"X":"0","Y":"0","Z":"-0,25",},
    "sca":{"X":"0","Y":"0","Z":"0",},
    "frames":1,
 };
 {
    "dibujo":"false",
    "nombre":"pata2",
    "tras":{"X":"0","Y":"0,05","Z":"0",},
    "rot":{"X":"0","Y":"0","Z":"-0,25",},
    "sca":{"X":"0","Y":"0","Z":"0",},
    "frames":1,
 };
 {
    "dibujo":"false",
    "nombre":"pata1",
    "tras":{"X":"0","Y":"-0,05","Z":"0",},
    "rot":{"X":"0","Y":"0","Z":"0,5",},
    "sca":{"X":"0","Y":"0","Z":"0",},
    "frames":1,
 };
 {
    "dibujo":"true",
    "tras":{"X":"-0,05","Y":"0","Z":"0",},
    "rot":{"X":"0","Y":"0","Z":"0",},
    "sca":{"X":"0","Y":"0","Z":"0",},
    "frames":1,
};
{
    "dibujo":"false",
    "nombre":"pata3",
    "tras":{"X":"0","Y":"0,25","Z":"0",},
    "rot":{"X":"0","Y":"0","Z":"-0,25",},
    "sca":{"X":"0","Y":"0","Z":"0",},
    "frames":1,
 };
 {
    "dibujo":"false",
    "nombre":"pata4",
    "tras":{"X":"0","Y":"0,25","Z":"0",},
    "rot":{"X":"0","Y":"0","Z":"-0,25",},
    "sca":{"X":"0","Y":"0","Z":"0",},
    "frames":1,
 };
 {
    "dibujo":"false",
    "nombre":"pata4",
    "tras":{"X":"0","Y":"-0,45","Z":"0",},
    "rot":{"X":"0","Y":"0","Z":"0,5",},
    "sca":{"X":"0","Y":"0","Z":"0",},
    "frames":1,
 };
 {
    "dibujo":"false",
    "nombre":"pata1",
    "tras":{"X":"0","Y":"0","Z":"0",},
    "rot":{"X":"0","Y":"0","Z":"-0,25",},
    "sca":{"X":"0","Y":"0","Z":"0",},
    "frames":1,
 };
 {
    "dibujo":"false",
    "nombre":"pata2",
    "tras":{"X":"0","Y":"-0,05","Z":"0",},
    "rot":{"X":"0","Y":"0","Z":"0,25",},
    "sca":{"X":"0","Y":"0","Z":"0",},
    "frames":1,
 };
 {
    "dibujo":"false",
    "nombre":"pata3",
    "tras":{"X":"0","Y":"-0,25","Z":"0",},
    "rot":{"X":"0","Y":"0","Z":"0,25",},
    "sca":{"X":"0","Y":"0","Z":"0",},
    "frames":1,
 };
 {
    "dibujo":"false",
    "nombre":"pata4",
    "tras":{"X":"0","Y":"0,2","Z":"0",},
    "rot":{"X":"0","Y":"0","Z":"-0,25",},
    "sca":{"X":"0","Y":"0","Z":"0",},
    "frames":1,
 };
 {
    "dibujo":"false",
    "nombre":"pata1",
    "tras":{"X":"0","Y":"0,05","Z":"0",},
    "rot":{"X":"0","Y":"0","Z":"-0,25",},
    "sca":{"X":"0","Y":"0","Z":"0",},
    "frames":1,
 };
 {
    "dibujo":"false",
    "nombre":"pata2",
    "tras":{"X":"0","Y":"0,05","Z":"0",},
    "rot":{"X":"0","Y":"0","Z":"-0,25",},
    "sca":{"X":"0","Y":"0","Z":"0",},
    "frames":1,
 };
 {
    "dibujo":"false",
    "nombre":"pata1",
    "tras":{"X":"0","Y":"-0,05","Z":"0",},
    "rot":{"X":"0","Y":"0","Z":"0,5",},
    "sca":{"X":"0","Y":"0","Z":"0",},
    "frames":1,
 };
 {
    "dibujo":"true",
    "tras":{"X":"-0,05","Y":"0","Z":"0",},
    "rot":{"X":"0","Y":"0","Z":"0",},
    "sca":{"X":"0","Y":"0","Z":"0",},
    "frames":1,
};
{
    "dibujo":"false",
    "nombre":"pata3",
    "tras":{"X":"0","Y":"0,25","Z":"0",},
    "rot":{"X":"0","Y":"0","Z":"-0,25",},
    "sca":{"X":"0","Y":"0","Z":"0",},
    "frames":1,
 };
 {
    "dibujo":"false",
    "nombre":"pata4",
    "tras":{"X":"0","Y":"0,25","Z":"0",},
    "rot":{"X":"0","Y":"0","Z":"-0,25",},
    "sca":{"X":"0","Y":"0","Z":"0",},
    "frames":1,
 };
 {
    "dibujo":"false",
    "nombre":"pata4",
    "tras":{"X":"0","Y":"-0,45","Z":"0",},
    "rot":{"X":"0","Y":"0","Z":"0,5",},
    "sca":{"X":"0","Y":"0","Z":"0",},
    "frames":1,
 };
 {
    "dibujo":"false",
    "nombre":"pata1",
    "tras":{"X":"0","Y":"0","Z":"0",},
    "rot":{"X":"0","Y":"0","Z":"-0,25",},
    "sca":{"X":"0","Y":"0","Z":"0",},
    "frames":1,
 };
 {
    "dibujo":"false",
    "nombre":"pata2",
    "tras":{"X":"0","Y":"-0,05","Z":"0",},
    "rot":{"X":"0","Y":"0","Z":"0,25",},
    "sca":{"X":"0","Y":"0","Z":"0",},
    "frames":1,
 };
 {
    "dibujo":"false",
    "nombre":"pata3",
    "tras":{"X":"0","Y":"-0,25","Z":"0",},
    "rot":{"X":"0","Y":"0","Z":"0,25",},
    "sca":{"X":"0","Y":"0","Z":"0",},
    "frames":1,
 };
 {
    "dibujo":"false",
    "nombre":"pata4",
    "tras":{"X":"0","Y":"0,2","Z":"0",},
    "rot":{"X":"0","Y":"0","Z":"-0,25",},
    "sca":{"X":"0","Y":"0","Z":"0",},
    "frames":1,
 };
 {
    "dibujo":"false",
    "nombre":"pata1",
    "tras":{"X":"0","Y":"0,05","Z":"0",},
    "rot":{"X":"0","Y":"0","Z":"-0,25",},
    "sca":{"X":"0","Y":"0","Z":"0",},
    "frames":1,
 };
 {
    "dibujo":"false",
    "nombre":"pata2",
    "tras":{"X":"0","Y":"0,05","Z":"0",},
    "rot":{"X":"0","Y":"0","Z":"-0,25",},
    "sca":{"X":"0","Y":"0","Z":"0",},
    "frames":1,
 };
 {
    "dibujo":"false",
    "nombre":"pata1",
    "tras":{"X":"0","Y":"-0,05","Z":"0",},
    "rot":{"X":"0","Y":"0","Z":"0,5",},
    "sca":{"X":"0","Y":"0","Z":"0",},
    "frames":1,
 };
 {
    "dibujo":"true",
    "tras":{"X":"-0,05","Y":"0","Z":"0",},
    "rot":{"X":"0","Y":"0","Z":"0",},
    "sca":{"X":"0","Y":"0","Z":"0",},
    "frames":1,
};
{
    "dibujo":"false",
    "nombre":"pata3",
    "tras":{"X":"0","Y":"0,25","Z":"0",},
    "rot":{"X":"0","Y":"0","Z":"-0,25",},
    "sca":{"X":"0","Y":"0","Z":"0",},
    "frames":1,
 };
 {
    "dibujo":"false",
    "nombre":"pata4",
    "tras":{"X":"0","Y":"0,25","Z":"0",},
    "rot":{"X":"0","Y":"0","Z":"-0,25",},
    "sca":{"X":"0","Y":"0","Z":"0",},
    "frames":1,
 };
 {
    "dibujo":"false",
    "nombre":"pata4",
    "tras":{"X":"0","Y":"-0,45","Z":"0",},
    "rot":{"X":"0","Y":"0","Z":"0,5",},
    "sca":{"X":"0","Y":"0","Z":"0",},
    "frames":1,
 };
 {
    "dibujo":"false",
    "nombre":"pata1",
    "tras":{"X":"0","Y":"0","Z":"0",},
    "rot":{"X":"0","Y":"0","Z":"-0,25",},
    "sca":{"X":"0","Y":"0","Z":"0",},
    "frames":1,
 };
 {
    "dibujo":"false",
    "nombre":"pata2",
    "tras":{"X":"0","Y":"-0,05","Z":"0",},
    "rot":{"X":"0","Y":"0","Z":"0,25",},
    "sca":{"X":"0","Y":"0","Z":"0",},
    "frames":1,
 };
 {
    "dibujo":"false",
    "nombre":"pata3",
    "tras":{"X":"0","Y":"-0,25","Z":"0",},
    "rot":{"X":"0","Y":"0","Z":"0,25",},
    "sca":{"X":"0","Y":"0","Z":"0",},
    "frames":1,
 };
 {
    "dibujo":"false",
    "nombre":"pata4",
    "tras":{"X":"0","Y":"0,2","Z":"0",},
    "rot":{"X":"0","Y":"0","Z":"-0,25",},
    "sca":{"X":"0","Y":"0","Z":"0",},
    "frames":1,
 };
 {
    "dibujo":"false",
    "nombre":"pata1",
    "tras":{"X":"0","Y":"0,05","Z":"0",},
    "rot":{"X":"0","Y":"0","Z":"-0,25",},
    "sca":{"X":"0","Y":"0","Z":"0",},
    "frames":1,
 };
 {
    "dibujo":"false",
    "nombre":"pata2",
    "tras":{"X":"0","Y":"0,05","Z":"0",},
    "rot":{"X":"0","Y":"0","Z":"-0,25",},
    "sca":{"X":"0","Y":"0","Z":"0",},
    "frames":1,
 };
 {
    "dibujo":"false",
    "nombre":"pata1",
    "tras":{"X":"0","Y":"-0,05","Z":"0",},
    "rot":{"X":"0","Y":"0","Z":"0,5",},
    "sca":{"X":"0","Y":"0","Z":"0",},
    "frames":1,
 };
 {
    "dibujo":"true",
    "tras":{"X":"-0,05","Y":"0","Z":"0",},
    "rot":{"X":"0","Y":"0","Z":"0",},
    "sca":{"X":"0","Y":"0","Z":"0",},
    "frames":1,
};
{
    "dibujo":"false",
    "nombre":"pata3",
    "tras":{"X":"0","Y":"0,25","Z":"0",},
    "rot":{"X":"0","Y":"0","Z":"-0,25",},
    "sca":{"X":"0","Y":"0","Z":"0",},
    "frames":1,
 };
 {
    "dibujo":"false",
    "nombre":"pata4",
    "tras":{"X":"0","Y":"0,25","Z":"0",},
    "rot":{"X":"0","Y":"0","Z":"-0,25",},
    "sca":{"X":"0","Y":"0","Z":"0",},
    "frames":1,
 };
 {
    "dibujo":"false",
    "nombre":"pata4",
    "tras":{"X":"0","Y":"-0,45","Z":"0",},
    "rot":{"X":"0","Y":"0","Z":"0,5",},
    "sca":{"X":"0","Y":"0","Z":"0",},
    "frames":1,
 };
 {
    "dibujo":"false",
    "nombre":"pata1",
    "tras":{"X":"0","Y":"0","Z":"0",},
    "rot":{"X":"0","Y":"0","Z":"-0,25",},
    "sca":{"X":"0","Y":"0","Z":"0",},
    "frames":1,
 };
 {
    "dibujo":"false",
    "nombre":"pata2",
    "tras":{"X":"0","Y":"-0,05","Z":"0",},
    "rot":{"X":"0","Y":"0","Z":"0,25",},
    "sca":{"X":"0","Y":"0","Z":"0",},
    "frames":1,
 };
 {
    "dibujo":"false",
    "nombre":"pata3",
    "tras":{"X":"0","Y":"-0,25","Z":"0",},
    "rot":{"X":"0","Y":"0","Z":"0,25",},
    "sca":{"X":"0","Y":"0","Z":"0",},
    "frames":1,
 };
 {
    "dibujo":"false",
    "nombre":"pata4",
    "tras":{"X":"0","Y":"0,2","Z":"0",},
    "rot":{"X":"0","Y":"0","Z":"-0,25",},
    "sca":{"X":"0","Y":"0","Z":"0",},
    "frames":1,
 };
 {
    "dibujo":"false",
    "nombre":"pata1",
    "tras":{"X":"0","Y":"0,05","Z":"0",},
    "rot":{"X":"0","Y":"0","Z":"-0,25",},
    "sca":{"X":"0","Y":"0","Z":"0",},
    "frames":1,
 };
 {
    "dibujo":"false",
    "nombre":"pata2",
    "tras":{"X":"0","Y":"0,05","Z":"0",},
    "rot":{"X":"0","Y":"0","Z":"-0,25",},
    "sca":{"X":"0","Y":"0","Z":"0",},
    "frames":1,
 };
 {
    "dibujo":"false",
    "nombre":"pata1",
    "tras":{"X":"0","Y":"-0,05","Z":"0",},
    "rot":{"X":"0","Y":"0","Z":"0,5",},
    "sca":{"X":"0","Y":"0","Z":"0",},
    "frames":1,
 };
 {
    "dibujo":"true",
    "tras":{"X":"-0,05","Y":"0","Z":"0",},
    "rot":{"X":"0","Y":"0","Z":"0",},
    "sca":{"X":"0","Y":"0","Z":"0",},
    "frames":1,
};
{
    "dibujo":"false",
    "nombre":"pata3",
    "tras":{"X":"0","Y":"0,25","Z":"0",},
    "rot":{"X":"0","Y":"0","Z":"-0,25",},
    "sca":{"X":"0","Y":"0","Z":"0",},
    "frames":1,
 };
 {
    "dibujo":"false",
    "nombre":"pata4",
    "tras":{"X":"0","Y":"0,25","Z":"0",},
    "rot":{"X":"0","Y":"0","Z":"-0,25",},
    "sca":{"X":"0","Y":"0","Z":"0",},
    "frames":1,
 };
 {
    "dibujo":"false",
    "nombre":"pata4",
    "tras":{"X":"0","Y":"-0,45","Z":"0",},
    "rot":{"X":"0","Y":"0","Z":"0,5",},
    "sca":{"X":"0","Y":"0","Z":"0",},
    "frames":1,
 };
 {
    "dibujo":"false",
    "nombre":"pata1",
    "tras":{"X":"0","Y":"0","Z":"0",},
    "rot":{"X":"0","Y":"0","Z":"-0,25",},
    "sca":{"X":"0","Y":"0","Z":"0",},
    "frames":1,
 };
 {
    "dibujo":"false",
    "nombre":"pata2",
    "tras":{"X":"0","Y":"-0,05","Z":"0",},
    "rot":{"X":"0","Y":"0","Z":"0,25",},
    "sca":{"X":"0","Y":"0","Z":"0",},
    "frames":1,
 };
 {
    "dibujo":"false",
    "nombre":"pata3",
    "tras":{"X":"0","Y":"-0,25","Z":"0",},
    "rot":{"X":"0","Y":"0","Z":"0,25",},
    "sca":{"X":"0","Y":"0","Z":"0",},
    "frames":1,
 };
 {
    "dibujo":"false",
    "nombre":"pata4",
    "tras":{"X":"0","Y":"0,2","Z":"0",},
    "rot":{"X":"0","Y":"0","Z":"-0,25",},
    "sca":{"X":"0","Y":"0","Z":"0",},
    "frames":1,
 };
 {
    "dibujo":"false",
    "nombre":"pata1",
    "tras":{"X":"0","Y":"0,05","Z":"0",},
    "rot":{"X":"0","Y":"0","Z":"-0,25",},
    "sca":{"X":"0","Y":"0","Z":"0",},
    "frames":1,
 };
 {
    "dibujo":"false",
    "nombre":"pata2",
    "tras":{"X":"0","Y":"0,05","Z":"0",},
    "rot":{"X":"0","Y":"0","Z":"-0,25",},
    "sca":{"X":"0","Y":"0","Z":"0",},
    "frames":1,
 };
 {
    "dibujo":"false",
    "nombre":"pata1",
    "tras":{"X":"0","Y":"-0,05","Z":"0",},
    "rot":{"X":"0","Y":"0","Z":"0,5",},
    "sca":{"X":"0","Y":"0","Z":"0",},
    "frames":1,
 };
 {
    "dibujo":"true",
    "tras":{"X":"-0,05","Y":"0","Z":"0",},
    "rot":{"X":"0","Y":"0","Z":"0",},
    "sca":{"X":"0","Y":"0","Z":"0",},
    "frames":1,
};
{
    "dibujo":"false",
    "nombre":"pata3",
    "tras":{"X":"0","Y":"0,25","Z":"0",},
    "rot":{"X":"0","Y":"0","Z":"-0,25",},
    "sca":{"X":"0","Y":"0","Z":"0",},
    "frames":1,
 };
 {
    "dibujo":"false",
    "nombre":"pata4",
    "tras":{"X":"0","Y":"0,25","Z":"0",},
    "rot":{"X":"0","Y":"0","Z":"-0,25",},
    "sca":{"X":"0","Y":"0","Z":"0",},
    "frames":1,
 };
 {
    "dibujo":"false",
    "nombre":"pata4",
    "tras":{"X":"0","Y":"-0,45","Z":"0",},
    "rot":{"X":"0","Y":"0","Z":"0,5",},
    "sca":{"X":"0","Y":"0","Z":"0",},
    "frames":1,
 };
 {
    "dibujo":"false",
    "nombre":"pata1",
    "tras":{"X":"0","Y":"0","Z":"0",},
    "rot":{"X":"0","Y":"0","Z":"-0,25",},
    "sca":{"X":"0","Y":"0","Z":"0",},
    "frames":1,
 };
 {
    "dibujo":"false",
    "nombre":"pata2",
    "tras":{"X":"0","Y":"-0,05","Z":"0",},
    "rot":{"X":"0","Y":"0","Z":"0,25",},
    "sca":{"X":"0","Y":"0","Z":"0",},
    "frames":1,
 };
 {
    "dibujo":"false",
    "nombre":"pata3",
    "tras":{"X":"0","Y":"-0,25","Z":"0",},
    "rot":{"X":"0","Y":"0","Z":"0,25",},
    "sca":{"X":"0","Y":"0","Z":"0",},
    "frames":1,
 };
 {
    "dibujo":"false",
    "nombre":"pata4",
    "tras":{"X":"0","Y":"0,2","Z":"0",},
    "rot":{"X":"0","Y":"0","Z":"-0,25",},
    "sca":{"X":"0","Y":"0","Z":"0",},
    "frames":1,
 };
{
    "dibujo":"true",
    "tras":{"X":"0","Y":"0","Z":"0",},
    "rot":{"X":"0","Y":"0,0625","Z":"0",},
    "sca":{"X":"0","Y":"0","Z":"0",},
    "frames":25,
};
{
    "dibujo":"false",
    "nombre":"pata1",
    "tras":{"X":"0","Y":"0","Z":"-0,25",},
    "rot":{"X":"0,25","Y":"1,5625","Z":"0",},
    "sca":{"X":"0","Y":"0","Z":"0",},
    "frames":1,
 };
 {
    "dibujo":"false",
    "nombre":"pata2",
    "tras":{"X":"-0,7","Y":"-0,2","Z":"-0,95",},
    "rot":{"X":"0,25","Y":"1,5625","Z":"0",},
    "sca":{"X":"0","Y":"0","Z":"0",},
    "frames":1,
 };
 {
    "dibujo":"false",
    "nombre":"pata1",
    "tras":{"X":"0","Y":"0,05","Z":"0",},
    "rot":{"X":"-0,5","Y":"0","Z":"0",},
    "sca":{"X":"0","Y":"0","Z":"0",},
    "frames":1,
 };
 {
    "dibujo":"true",
    "tras":{"X":"0","Y":"0","Z":"0,05",},
    "rot":{"X":"0","Y":"0","Z":"0",},
    "sca":{"X":"0","Y":"0","Z":"0",},
    "frames":1,
};
{
    "dibujo":"false",
    "nombre":"pata3",
    "tras":{"X":"0,7","Y":"-0,05","Z":"-1,09",},
    "rot":{"X":"0,25","Y":"1,5625","Z":"0",},
    "sca":{"X":"0","Y":"0","Z":"0",},
    "frames":1,
 };
 {
    "dibujo":"false",
    "nombre":"pata4",
    "tras":{"X":"0","Y":"-0,20","Z":"-1,69",},
    "rot":{"X":"0,25","Y":"1,5625","Z":"0",},
    "sca":{"X":"0","Y":"0","Z":"0",},
    "frames":1,
 };
 {
    "dibujo":"false",
    "nombre":"pata4",
    "tras":{"X":"0","Y":"0,45","Z":"0",},
    "rot":{"X":"-0,5","Y":"0","Z":"0",},
    "sca":{"X":"0","Y":"0","Z":"0",},
    "frames":1,
 };
 {
    "dibujo":"false",
    "nombre":"pata1",
    "tras":{"X":"0","Y":"0","Z":"0",},
    "rot":{"X":"0,25","Y":"0","Z":"0",},
    "sca":{"X":"0","Y":"0","Z":"0",},
    "frames":1,
 };
 {
    "dibujo":"false",
    "nombre":"pata2",
    "tras":{"X":"0","Y":"0,25","Z":"0",},
    "rot":{"X":"-0,25","Y":"0","Z":"0",},
    "sca":{"X":"0","Y":"0","Z":"0",},
    "frames":1,
 };
 {
    "dibujo":"false",
    "nombre":"pata3",
    "tras":{"X":"0","Y":"0,05","Z":"0",},
    "rot":{"X":"-0,25","Y":"0","Z":"0",},
    "sca":{"X":"0","Y":"0","Z":"0",},
    "frames":1,
 };
 {
    "dibujo":"false",
    "nombre":"pata4",
    "tras":{"X":"0","Y":"-0,25","Z":"0",},
    "rot":{"X":"0,25","Y":"0","Z":"0",},
    "sca":{"X":"0","Y":"0","Z":"0",},
    "frames":1,
 };
{
    "dibujo":"false",
    "nombre":"pata1",
    "tras":{"X":"0","Y":"0","Z":"-0,25",},
    "rot":{"X":"0,25","Y":"0","Z":"0",},
    "sca":{"X":"0","Y":"0","Z":"0",},
    "frames":1,
 };
 {
    "dibujo":"false",
    "nombre":"pata2",
    "tras":{"X":"0","Y":"-0,2","Z":"0",},
    "rot":{"X":"0,25","Y":"0","Z":"0",},
    "sca":{"X":"0","Y":"0","Z":"0",},
    "frames":1,
 };
 {
    "dibujo":"false",
    "nombre":"pata1",
    "tras":{"X":"0","Y":"0,05","Z":"0,25",},
    "rot":{"X":"-0,5","Y":"0","Z":"0",},
    "sca":{"X":"0","Y":"0","Z":"0",},
    "frames":1,
 };
 {
    "dibujo":"true",
    "tras":{"X":"0","Y":"0","Z":"0,05",},
    "rot":{"X":"0","Y":"0","Z":"0",},
    "sca":{"X":"0","Y":"0","Z":"0",},
    "frames":1,
};
{
    "dibujo":"false",
    "nombre":"pata3",
    "tras":{"X":"0","Y":"-0,05","Z":"0",},
    "rot":{"X":"0,25","Y":"0","Z":"0",},
    "sca":{"X":"0","Y":"0","Z":"0",},
    "frames":1,
 };
 {
    "dibujo":"false",
    "nombre":"pata4",
    "tras":{"X":"0","Y":"-0,20","Z":"0",},
    "rot":{"X":"0,25","Y":"0","Z":"0",},
    "sca":{"X":"0","Y":"0","Z":"0",},
    "frames":1,
 };
 {
    "dibujo":"false",
    "nombre":"pata4",
    "tras":{"X":"0","Y":"0,45","Z":"0",},
    "rot":{"X":"-0,5","Y":"0","Z":"0",},
    "sca":{"X":"0","Y":"0","Z":"0",},
    "frames":1,
 };
 {
    "dibujo":"false",
    "nombre":"pata1",
    "tras":{"X":"0","Y":"-0,05","Z":"0",},
    "rot":{"X":"0,25","Y":"0","Z":"0",},
    "sca":{"X":"0","Y":"0","Z":"0",},
    "frames":1,
 };
 {
    "dibujo":"false",
    "nombre":"pata2",
    "tras":{"X":"0","Y":"0,2","Z":"0",},
    "rot":{"X":"-0,25","Y":"0","Z":"0",},
    "sca":{"X":"0","Y":"0","Z":"0",},
    "frames":1,
 };
 {
    "dibujo":"false",
    "nombre":"pata3",
    "tras":{"X":"0","Y":"0,05","Z":"0",},
    "rot":{"X":"-0,25","Y":"0","Z":"0",},
    "sca":{"X":"0","Y":"0","Z":"0",},
    "frames":1,
 };
 {
    "dibujo":"false",
    "nombre":"pata4",
    "tras":{"X":"0","Y":"-0,25","Z":"0",},
    "rot":{"X":"0,25","Y":"0","Z":"0",},
    "sca":{"X":"0","Y":"0","Z":"0",},
    "frames":1,
 };
 {
    "dibujo":"false",
    "nombre":"pata1",
    "tras":{"X":"0","Y":"0","Z":"-0,25",},
    "rot":{"X":"0,25","Y":"0","Z":"0",},
    "sca":{"X":"0","Y":"0","Z":"0",},
    "frames":1,
 };
 {
    "dibujo":"false",
    "nombre":"pata2",
    "tras":{"X":"0","Y":"-0,2","Z":"0",},
    "rot":{"X":"0,25","Y":"0","Z":"0",},
    "sca":{"X":"0","Y":"0","Z":"0",},
    "frames":1,
 };
 {
    "dibujo":"false",
    "nombre":"pata1",
    "tras":{"X":"0","Y":"0,05","Z":"0,25",},
    "rot":{"X":"-0,5","Y":"0","Z":"0",},
    "sca":{"X":"0","Y":"0","Z":"0",},
    "frames":1,
 };
 {
    "dibujo":"true",
    "tras":{"X":"0","Y":"0","Z":"0,05",},
    "rot":{"X":"0","Y":"0","Z":"0",},
    "sca":{"X":"0","Y":"0","Z":"0",},
    "frames":1,
};
{
    "dibujo":"false",
    "nombre":"pata3",
    "tras":{"X":"0","Y":"-0,05","Z":"0",},
    "rot":{"X":"0,25","Y":"0","Z":"0",},
    "sca":{"X":"0","Y":"0","Z":"0",},
    "frames":1,
 };
 {
    "dibujo":"false",
    "nombre":"pata4",
    "tras":{"X":"0","Y":"-0,20","Z":"0",},
    "rot":{"X":"0,25","Y":"0","Z":"0",},
    "sca":{"X":"0","Y":"0","Z":"0",},
    "frames":1,
 };
 {
    "dibujo":"false",
    "nombre":"pata4",
    "tras":{"X":"0","Y":"0,45","Z":"0",},
    "rot":{"X":"-0,5","Y":"0","Z":"0",},
    "sca":{"X":"0","Y":"0","Z":"0",},
    "frames":1,
 };
 {
    "dibujo":"false",
    "nombre":"pata1",
    "tras":{"X":"0","Y":"-0,05","Z":"0",},
    "rot":{"X":"0,25","Y":"0","Z":"0",},
    "sca":{"X":"0","Y":"0","Z":"0",},
    "frames":1,
 };
 {
    "dibujo":"false",
    "nombre":"pata2",
    "tras":{"X":"0","Y":"0,2","Z":"0",},
    "rot":{"X":"-0,25","Y":"0","Z":"0",},
    "sca":{"X":"0","Y":"0","Z":"0",},
    "frames":1,
 };
 {
    "dibujo":"false",
    "nombre":"pata3",
    "tras":{"X":"0","Y":"0,05","Z":"0",},
    "rot":{"X":"-0,25","Y":"0","Z":"0",},
    "sca":{"X":"0","Y":"0","Z":"0",},
    "frames":1,
 };
 {
    "dibujo":"false",
    "nombre":"pata4",
    "tras":{"X":"0","Y":"-0,25","Z":"0",},
    "rot":{"X":"0,25","Y":"0","Z":"0",},
    "sca":{"X":"0","Y":"0","Z":"0",},
    "frames":1,
 };
 {
    "dibujo":"false",
    "nombre":"pata1",
    "tras":{"X":"0","Y":"0","Z":"-0,25",},
    "rot":{"X":"0,25","Y":"0","Z":"0",},
    "sca":{"X":"0","Y":"0","Z":"0",},
    "frames":1,
 };
 {
    "dibujo":"false",
    "nombre":"pata2",
    "tras":{"X":"0","Y":"-0,2","Z":"0",},
    "rot":{"X":"0,25","Y":"0","Z":"0",},
    "sca":{"X":"0","Y":"0","Z":"0",},
    "frames":1,
 };
 {
    "dibujo":"false",
    "nombre":"pata1",
    "tras":{"X":"0","Y":"0,05","Z":"0,25",},
    "rot":{"X":"-0,5","Y":"0","Z":"0",},
    "sca":{"X":"0","Y":"0","Z":"0",},
    "frames":1,
 };
 {
    "dibujo":"true",
    "tras":{"X":"0","Y":"0","Z":"0,05",},
    "rot":{"X":"0","Y":"0","Z":"0",},
    "sca":{"X":"0","Y":"0","Z":"0",},
    "frames":1,
};
{
    "dibujo":"false",
    "nombre":"pata3",
    "tras":{"X":"0","Y":"-0,05","Z":"0",},
    "rot":{"X":"0,25","Y":"0","Z":"0",},
    "sca":{"X":"0","Y":"0","Z":"0",},
    "frames":1,
 };
 {
    "dibujo":"false",
    "nombre":"pata4",
    "tras":{"X":"0","Y":"-0,20","Z":"0",},
    "rot":{"X":"0,25","Y":"0","Z":"0",},
    "sca":{"X":"0","Y":"0","Z":"0",},
    "frames":1,
 };
 {
    "dibujo":"false",
    "nombre":"pata4",
    "tras":{"X":"0","Y":"0,45","Z":"0",},
    "rot":{"X":"-0,5","Y":"0","Z":"0",},
    "sca":{"X":"0","Y":"0","Z":"0",},
    "frames":1,
 };
 {
    "dibujo":"false",
    "nombre":"pata1",
    "tras":{"X":"0","Y":"-0,05","Z":"0",},
    "rot":{"X":"0,25","Y":"0","Z":"0",},
    "sca":{"X":"0","Y":"0","Z":"0",},
    "frames":1,
 };
 {
    "dibujo":"false",
    "nombre":"pata2",
    "tras":{"X":"0","Y":"0,2","Z":"0",},
    "rot":{"X":"-0,25","Y":"0","Z":"0",},
    "sca":{"X":"0","Y":"0","Z":"0",},
    "frames":1,
 };
 {
    "dibujo":"false",
    "nombre":"pata3",
    "tras":{"X":"0","Y":"0,05","Z":"0",},
    "rot":{"X":"-0,25","Y":"0","Z":"0",},
    "sca":{"X":"0","Y":"0","Z":"0",},
    "frames":1,
 };
 {
    "dibujo":"false",
    "nombre":"pata4",
    "tras":{"X":"0","Y":"-0,25","Z":"0",},
    "rot":{"X":"0,25","Y":"0","Z":"0",},
    "sca":{"X":"0","Y":"0","Z":"0",},
    "frames":1,
 };
 {
    "dibujo":"false",
    "nombre":"pata1",
    "tras":{"X":"0","Y":"0","Z":"-0,25",},
    "rot":{"X":"0,25","Y":"0","Z":"0",},
    "sca":{"X":"0","Y":"0","Z":"0",},
    "frames":1,
 };
 {
    "dibujo":"false",
    "nombre":"pata2",
    "tras":{"X":"0","Y":"-0,2","Z":"0",},
    "rot":{"X":"0,25","Y":"0","Z":"0",},
    "sca":{"X":"0","Y":"0","Z":"0",},
    "frames":1,
 };
 {
    "dibujo":"false",
    "nombre":"pata1",
    "tras":{"X":"0","Y":"0,05","Z":"0,25",},
    "rot":{"X":"-0,5","Y":"0","Z":"0",},
    "sca":{"X":"0","Y":"0","Z":"0",},
    "frames":1,
 };
 {
    "dibujo":"true",
    "tras":{"X":"0","Y":"0","Z":"0,05",},
    "rot":{"X":"0","Y":"0","Z":"0",},
    "sca":{"X":"0","Y":"0","Z":"0",},
    "frames":1,
};
{
    "dibujo":"false",
    "nombre":"pata3",
    "tras":{"X":"0","Y":"-0,05","Z":"0",},
    "rot":{"X":"0,25","Y":"0","Z":"0",},
    "sca":{"X":"0","Y":"0","Z":"0",},
    "frames":1,
 };
 {
    "dibujo":"false",
    "nombre":"pata4",
    "tras":{"X":"0","Y":"-0,20","Z":"0",},
    "rot":{"X":"0,25","Y":"0","Z":"0",},
    "sca":{"X":"0","Y":"0","Z":"0",},
    "frames":1,
 };
 {
    "dibujo":"false",
    "nombre":"pata4",
    "tras":{"X":"0","Y":"0,45","Z":"0",},
    "rot":{"X":"-0,5","Y":"0","Z":"0",},
    "sca":{"X":"0","Y":"0","Z":"0",},
    "frames":1,
 };
 {
    "dibujo":"false",
    "nombre":"pata1",
    "tras":{"X":"0","Y":"-0,05","Z":"0",},
    "rot":{"X":"0,25","Y":"0","Z":"0",},
    "sca":{"X":"0","Y":"0","Z":"0",},
    "frames":1,
 };
 {
    "dibujo":"false",
    "nombre":"pata2",
    "tras":{"X":"0","Y":"0,2","Z":"0",},
    "rot":{"X":"-0,25","Y":"0","Z":"0",},
    "sca":{"X":"0","Y":"0","Z":"0",},
    "frames":1,
 };
 {
    "dibujo":"false",
    "nombre":"pata3",
    "tras":{"X":"0","Y":"0,05","Z":"0",},
    "rot":{"X":"-0,25","Y":"0","Z":"0",},
    "sca":{"X":"0","Y":"0","Z":"0",},
    "frames":1,
 };
 {
    "dibujo":"false",
    "nombre":"pata4",
    "tras":{"X":"0","Y":"-0,25","Z":"0",},
    "rot":{"X":"0,25","Y":"0","Z":"0",},
    "sca":{"X":"0","Y":"0","Z":"0",},
    "frames":1,
 };
 {
    "dibujo":"false",
    "nombre":"pata1",
    "tras":{"X":"0","Y":"0","Z":"-0,25",},
    "rot":{"X":"0,25","Y":"0","Z":"0",},
    "sca":{"X":"0","Y":"0","Z":"0",},
    "frames":1,
 };
 {
    "dibujo":"false",
    "nombre":"pata2",
    "tras":{"X":"0","Y":"-0,2","Z":"0",},
    "rot":{"X":"0,25","Y":"0","Z":"0",},
    "sca":{"X":"0","Y":"0","Z":"0",},
    "frames":1,
 };
 {
    "dibujo":"false",
    "nombre":"pata1",
    "tras":{"X":"0","Y":"0,05","Z":"0,25",},
    "rot":{"X":"-0,5","Y":"0","Z":"0",},
    "sca":{"X":"0","Y":"0","Z":"0",},
    "frames":1,
 };
 {
    "dibujo":"true",
    "tras":{"X":"0","Y":"0","Z":"0,05",},
    "rot":{"X":"0","Y":"0","Z":"0",},
    "sca":{"X":"0","Y":"0","Z":"0",},
    "frames":1,
};
{
    "dibujo":"false",
    "nombre":"pata3",
    "tras":{"X":"0","Y":"-0,05","Z":"0",},
    "rot":{"X":"0,25","Y":"0","Z":"0",},
    "sca":{"X":"0","Y":"0","Z":"0",},
    "frames":1,
 };
 {
    "dibujo":"false",
    "nombre":"pata4",
    "tras":{"X":"0","Y":"-0,20","Z":"0",},
    "rot":{"X":"0,25","Y":"0","Z":"0",},
    "sca":{"X":"0","Y":"0","Z":"0",},
    "frames":1,
 };
 {
    "dibujo":"false",
    "nombre":"pata4",
    "tras":{"X":"0","Y":"0,45","Z":"0",},
    "rot":{"X":"-0,5","Y":"0","Z":"0",},
    "sca":{"X":"0","Y":"0","Z":"0",},
    "frames":1,
 };
 {
    "dibujo":"false",
    "nombre":"pata1",
    "tras":{"X":"0","Y":"-0,05","Z":"0",},
    "rot":{"X":"0,25","Y":"0","Z":"0",},
    "sca":{"X":"0","Y":"0","Z":"0",},
    "frames":1,
 };
 {
    "dibujo":"false",
    "nombre":"pata2",
    "tras":{"X":"0","Y":"0,2","Z":"0",},
    "rot":{"X":"-0,25","Y":"0","Z":"0",},
    "sca":{"X":"0","Y":"0","Z":"0",},
    "frames":1,
 };
 {
    "dibujo":"false",
    "nombre":"pata3",
    "tras":{"X":"0","Y":"0,05","Z":"0",},
    "rot":{"X":"-0,25","Y":"0","Z":"0",},
    "sca":{"X":"0","Y":"0","Z":"0",},
    "frames":1,
 };
 {
    "dibujo":"false",
    "nombre":"pata4",
    "tras":{"X":"0","Y":"-0,25","Z":"0",},
    "rot":{"X":"0,25","Y":"0","Z":"0",},
    "sca":{"X":"0","Y":"0","Z":"0",},
    "frames":1,
 };
 {
    "dibujo":"false",
    "nombre":"pata1",
    "tras":{"X":"0","Y":"0","Z":"-0,25",},
    "rot":{"X":"0,25","Y":"0","Z":"0",},
    "sca":{"X":"0","Y":"0","Z":"0",},
    "frames":1,
 };
 {
    "dibujo":"false",
    "nombre":"pata2",
    "tras":{"X":"0","Y":"-0,2","Z":"0",},
    "rot":{"X":"0,25","Y":"0","Z":"0",},
    "sca":{"X":"0","Y":"0","Z":"0",},
    "frames":1,
 };
 {
    "dibujo":"false",
    "nombre":"pata1",
    "tras":{"X":"0","Y":"0,05","Z":"0,25",},
    "rot":{"X":"-0,5","Y":"0","Z":"0",},
    "sca":{"X":"0","Y":"0","Z":"0",},
    "frames":1,
 };
 {
    "dibujo":"true",
    "tras":{"X":"0","Y":"0","Z":"0,05",},
    "rot":{"X":"0","Y":"0","Z":"0",},
    "sca":{"X":"0","Y":"0","Z":"0",},
    "frames":1,
};
{
    "dibujo":"false",
    "nombre":"pata3",
    "tras":{"X":"0","Y":"-0,05","Z":"0",},
    "rot":{"X":"0,25","Y":"0","Z":"0",},
    "sca":{"X":"0","Y":"0","Z":"0",},
    "frames":1,
 };
 {
    "dibujo":"false",
    "nombre":"pata4",
    "tras":{"X":"0","Y":"-0,20","Z":"0",},
    "rot":{"X":"0,25","Y":"0","Z":"0",},
    "sca":{"X":"0","Y":"0","Z":"0",},
    "frames":1,
 };
 {
    "dibujo":"false",
    "nombre":"pata4",
    "tras":{"X":"0","Y":"0,45","Z":"0",},
    "rot":{"X":"-0,5","Y":"0","Z":"0",},
    "sca":{"X":"0","Y":"0","Z":"0",},
    "frames":1,
 };
 {
    "dibujo":"false",
    "nombre":"pata1",
    "tras":{"X":"0","Y":"-0,05","Z":"0",},
    "rot":{"X":"0,25","Y":"0","Z":"0",},
    "sca":{"X":"0","Y":"0","Z":"0",},
    "frames":1,
 };
 {
    "dibujo":"false",
    "nombre":"pata2",
    "tras":{"X":"0","Y":"0,2","Z":"0",},
    "rot":{"X":"-0,25","Y":"0","Z":"0",},
    "sca":{"X":"0","Y":"0","Z":"0",},
    "frames":1,
 };
 {
    "dibujo":"false",
    "nombre":"pata3",
    "tras":{"X":"0","Y":"0,05","Z":"0",},
    "rot":{"X":"-0,25","Y":"0","Z":"0",},
    "sca":{"X":"0","Y":"0","Z":"0",},
    "frames":1,
 };
 {
    "dibujo":"false",
    "nombre":"pata4",
    "tras":{"X":"0","Y":"-0,25","Z":"0",},
    "rot":{"X":"0,25","Y":"0","Z":"0",},
    "sca":{"X":"0","Y":"0","Z":"0",},
    "frames":1,
 };
 {
    "dibujo":"false",
    "nombre":"pata1",
    "tras":{"X":"0","Y":"0","Z":"-0,25",},
    "rot":{"X":"0,25","Y":"0","Z":"0",},
    "sca":{"X":"0","Y":"0","Z":"0",},
    "frames":1,
 };
 {
    "dibujo":"false",
    "nombre":"pata2",
    "tras":{"X":"0","Y":"-0,2","Z":"0",},
    "rot":{"X":"0,25","Y":"0","Z":"0",},
    "sca":{"X":"0","Y":"0","Z":"0",},
    "frames":1,
 };
 {
    "dibujo":"false",
    "nombre":"pata1",
    "tras":{"X":"0","Y":"0,05","Z":"0,25",},
    "rot":{"X":"-0,5","Y":"0","Z":"0",},
    "sca":{"X":"0","Y":"0","Z":"0",},
    "frames":1,
 };
 {
    "dibujo":"true",
    "tras":{"X":"0","Y":"0","Z":"0,05",},
    "rot":{"X":"0","Y":"0","Z":"0",},
    "sca":{"X":"0","Y":"0","Z":"0",},
    "frames":1,
};
{
    "dibujo":"false",
    "nombre":"pata3",
    "tras":{"X":"0","Y":"-0,05","Z":"0",},
    "rot":{"X":"0,25","Y":"0","Z":"0",},
    "sca":{"X":"0","Y":"0","Z":"0",},
    "frames":1,
 };
 {
    "dibujo":"false",
    "nombre":"pata4",
    "tras":{"X":"0","Y":"-0,20","Z":"0",},
    "rot":{"X":"0,25","Y":"0","Z":"0",},
    "sca":{"X":"0","Y":"0","Z":"0",},
    "frames":1,
 };
 {
    "dibujo":"false",
    "nombre":"pata4",
    "tras":{"X":"0","Y":"0,45","Z":"0",},
    "rot":{"X":"-0,5","Y":"0","Z":"0",},
    "sca":{"X":"0","Y":"0","Z":"0",},
    "frames":1,
 };
 {
    "dibujo":"false",
    "nombre":"pata1",
    "tras":{"X":"0","Y":"-0,05","Z":"0",},
    "rot":{"X":"0,25","Y":"0","Z":"0",},
    "sca":{"X":"0","Y":"0","Z":"0",},
    "frames":1,
 };
 {
    "dibujo":"false",
    "nombre":"pata2",
    "tras":{"X":"0","Y":"0,2","Z":"0",},
    "rot":{"X":"-0,25","Y":"0","Z":"0",},
    "sca":{"X":"0","Y":"0","Z":"0",},
    "frames":1,
 };
 {
    "dibujo":"false",
    "nombre":"pata3",
    "tras":{"X":"0","Y":"0,05","Z":"0",},
    "rot":{"X":"-0,25","Y":"0","Z":"0",},
    "sca":{"X":"0","Y":"0","Z":"0",},
    "frames":1,
 };
 {
    "dibujo":"false",
    "nombre":"pata4",
    "tras":{"X":"0","Y":"-0,25","Z":"0",},
    "rot":{"X":"0,25","Y":"0","Z":"0",},
    "sca":{"X":"0","Y":"0","Z":"0",},
    "frames":1,
 };
 {
    "dibujo":"false",
    "nombre":"pata1",
    "tras":{"X":"0","Y":"0","Z":"-0,25",},
    "rot":{"X":"0,25","Y":"0","Z":"0",},
    "sca":{"X":"0","Y":"0","Z":"0",},
    "frames":1,
 };
 {
    "dibujo":"false",
    "nombre":"pata2",
    "tras":{"X":"0","Y":"-0,2","Z":"0",},
    "rot":{"X":"0,25","Y":"0","Z":"0",},
    "sca":{"X":"0","Y":"0","Z":"0",},
    "frames":1,
 };
 {
    "dibujo":"false",
    "nombre":"pata1",
    "tras":{"X":"0","Y":"0,05","Z":"0,25",},
    "rot":{"X":"-0,5","Y":"0","Z":"0",},
    "sca":{"X":"0","Y":"0","Z":"0",},
    "frames":1,
 };
 {
    "dibujo":"true",
    "tras":{"X":"0","Y":"0","Z":"0,05",},
    "rot":{"X":"0","Y":"0","Z":"0",},
    "sca":{"X":"0","Y":"0","Z":"0",},
    "frames":1,
};
{
    "dibujo":"false",
    "nombre":"pata3",
    "tras":{"X":"0","Y":"-0,05","Z":"0",},
    "rot":{"X":"0,25","Y":"0","Z":"0",},
    "sca":{"X":"0","Y":"0","Z":"0",},
    "frames":1,
 };
 {
    "dibujo":"false",
    "nombre":"pata4",
    "tras":{"X":"0","Y":"-0,20","Z":"0",},
    "rot":{"X":"0,25","Y":"0","Z":"0",},
    "sca":{"X":"0","Y":"0","Z":"0",},
    "frames":1,
 };
 {
    "dibujo":"false",
    "nombre":"pata4",
    "tras":{"X":"0","Y":"0,45","Z":"0",},
    "rot":{"X":"-0,5","Y":"0","Z":"0",},
    "sca":{"X":"0","Y":"0","Z":"0",},
    "frames":1,
 };
 {
    "dibujo":"false",
    "nombre":"pata1",
    "tras":{"X":"0","Y":"-0,05","Z":"0",},
    "rot":{"X":"0,25","Y":"0","Z":"0",},
    "sca":{"X":"0","Y":"0","Z":"0",},
    "frames":1,
 };
 {
    "dibujo":"false",
    "nombre":"pata2",
    "tras":{"X":"0","Y":"0,2","Z":"0",},
    "rot":{"X":"-0,25","Y":"0","Z":"0",},
    "sca":{"X":"0","Y":"0","Z":"0",},
    "frames":1,
 };
 {
    "dibujo":"false",
    "nombre":"pata3",
    "tras":{"X":"0","Y":"0,05","Z":"0",},
    "rot":{"X":"-0,25","Y":"0","Z":"0",},
    "sca":{"X":"0","Y":"0","Z":"0",},
    "frames":1,
 };
 {
    "dibujo":"false",
    "nombre":"pata4",
    "tras":{"X":"0","Y":"-0,25","Z":"0",},
    "rot":{"X":"0,25","Y":"0","Z":"0",},
    "sca":{"X":"0","Y":"0","Z":"0",},
    "frames":1,
 };
 {
    "dibujo":"false",
    "nombre":"pata1",
    "tras":{"X":"0","Y":"0","Z":"-0,25",},
    "rot":{"X":"0,25","Y":"0","Z":"0",},
    "sca":{"X":"0","Y":"0","Z":"0",},
    "frames":1,
 };
 {
    "dibujo":"false",
    "nombre":"pata2",
    "tras":{"X":"0","Y":"-0,2","Z":"0",},
    "rot":{"X":"0,25","Y":"0","Z":"0",},
    "sca":{"X":"0","Y":"0","Z":"0",},
    "frames":1,
 };
 {
    "dibujo":"false",
    "nombre":"pata1",
    "tras":{"X":"0","Y":"0,05","Z":"0,25",},
    "rot":{"X":"-0,5","Y":"0","Z":"0",},
    "sca":{"X":"0","Y":"0","Z":"0",},
    "frames":1,
 };
 {
    "dibujo":"true",
    "tras":{"X":"0","Y":"0","Z":"0,05",},
    "rot":{"X":"0","Y":"0","Z":"0",},
    "sca":{"X":"0","Y":"0","Z":"0",},
    "frames":1,
};
{
    "dibujo":"false",
    "nombre":"pata3",
    "tras":{"X":"0","Y":"-0,05","Z":"0",},
    "rot":{"X":"0,25","Y":"0","Z":"0",},
    "sca":{"X":"0","Y":"0","Z":"0",},
    "frames":1,
 };
 {
    "dibujo":"false",
    "nombre":"pata4",
    "tras":{"X":"0","Y":"-0,20","Z":"0",},
    "rot":{"X":"0,25","Y":"0","Z":"0",},
    "sca":{"X":"0","Y":"0","Z":"0",},
    "frames":1,
 };
 {
    "dibujo":"false",
    "nombre":"pata4",
    "tras":{"X":"0","Y":"0,45","Z":"0",},
    "rot":{"X":"-0,5","Y":"0","Z":"0",},
    "sca":{"X":"0","Y":"0","Z":"0",},
    "frames":1,
 };
 {
    "dibujo":"false",
    "nombre":"pata1",
    "tras":{"X":"0","Y":"-0,05","Z":"0,25",},
    "rot":{"X":"0,25","Y":"-1,5625","Z":"0",},
    "sca":{"X":"0","Y":"0","Z":"0",},
    "frames":1,
 };
 {
    "dibujo":"false",
    "nombre":"pata2",
    "tras":{"X":"0,7","Y":"0,2","Z":"0,95",},
    "rot":{"X":"-0,25","Y":"-1,5625","Z":"0",},
    "sca":{"X":"0","Y":"0","Z":"0",},
    "frames":1,
 };
 {
    "dibujo":"false",
    "nombre":"pata3",
    "tras":{"X":"-0,6","Y":"0,05","Z":"1,09",},
    "rot":{"X":"-0,25","Y":"-1,5625","Z":"0",},
    "sca":{"X":"0","Y":"0","Z":"0",},
    "frames":1,
 };
 {
    "dibujo":"false",
    "nombre":"pata4",
    "tras":{"X":"0","Y":"-0,25","Z":"1,69",},
    "rot":{"X":"0,25","Y":"-1,5625","Z":"0",},
    "sca":{"X":"0","Y":"0","Z":"0",},
    "frames":1,
 };
{
    "dibujo":"true",
    "tras":{"X":"0","Y":"0","Z":"0",},
    "rot":{"X":"0","Y":"0,0625","Z":"0",},
    "sca":{"X":"0","Y":"0","Z":"0",},
    "frames":25,
};
{
    "dibujo":"false",
    "nombre":"pata1",
    "tras":{"X":"0","Y":"0,05","Z":"0",},
    "rot":{"X":"0","Y":"0","Z":"0,25",},
    "sca":{"X":"0","Y":"0","Z":"0",},
    "frames":1,
 };
 {
    "dibujo":"false",
    "nombre":"pata2",
    "tras":{"X":"0","Y":"0,05","Z":"0",},
    "rot":{"X":"0","Y":"0","Z":"0,25",},
    "sca":{"X":"0","Y":"0","Z":"0",},
    "frames":1,
 };
 {
    "dibujo":"false",
    "nombre":"pata1",
    "tras":{"X":"0","Y":"-0,05","Z":"0",},
    "rot":{"X":"0","Y":"0","Z":"-0,5",},
    "sca":{"X":"0","Y":"0","Z":"0",},
    "frames":1,
 };
 {
    "dibujo":"true",
    "tras":{"X":"0,1","Y":"0","Z":"0",},
    "rot":{"X":"0","Y":"0","Z":"0",},
    "sca":{"X":"0","Y":"0","Z":"0",},
    "frames":1,
};
{
    "dibujo":"false",
    "nombre":"pata3",
    "tras":{"X":"0","Y":"0,25","Z":"0",},
    "rot":{"X":"0","Y":"0","Z":"0,25",},
    "sca":{"X":"0","Y":"0","Z":"0",},
    "frames":1,
 };
 {
    "dibujo":"false",
    "nombre":"pata4",
    "tras":{"X":"0","Y":"0,25","Z":"0",},
    "rot":{"X":"0","Y":"0","Z":"0,25",},
    "sca":{"X":"0","Y":"0","Z":"0",},
    "frames":1,
 };
 {
    "dibujo":"false",
    "nombre":"pata4",
    "tras":{"X":"0","Y":"-0,45","Z":"0",},
    "rot":{"X":"0","Y":"0","Z":"-0,5",},
    "sca":{"X":"0","Y":"0","Z":"0",},
    "frames":1,
 };
 {
    "dibujo":"false",
    "nombre":"pata1",
    "tras":{"X":"0","Y":"0","Z":"0",},
    "rot":{"X":"0","Y":"0","Z":"0,25",},
    "sca":{"X":"0","Y":"0","Z":"0",},
    "frames":1,
 };
 {
    "dibujo":"false",
    "nombre":"pata2",
    "tras":{"X":"0","Y":"-0,05","Z":"0",},
    "rot":{"X":"0","Y":"0","Z":"-0,25",},
    "sca":{"X":"0","Y":"0","Z":"0",},
    "frames":1,
 };
 {
    "dibujo":"false",
    "nombre":"pata3",
    "tras":{"X":"0","Y":"-0,25","Z":"0",},
    "rot":{"X":"0","Y":"0","Z":"-0,25",},
    "sca":{"X":"0","Y":"0","Z":"0",},
    "frames":1,
 };
 {
    "dibujo":"false",
    "nombre":"pata4",
    "tras":{"X":"0","Y":"0,2","Z":"0",},
    "rot":{"X":"0","Y":"0","Z":"0,25",},
    "sca":{"X":"0","Y":"0","Z":"0",},
    "frames":1,
 };
{
    "dibujo":"false",
    "nombre":"pata1",
    "tras":{"X":"0","Y":"0,05","Z":"0",},
    "rot":{"X":"0","Y":"0","Z":"0,25",},
    "sca":{"X":"0","Y":"0","Z":"0",},
    "frames":1,
 };
 {
    "dibujo":"false",
    "nombre":"pata2",
    "tras":{"X":"0","Y":"0,05","Z":"0",},
    "rot":{"X":"0","Y":"0","Z":"0,25",},
    "sca":{"X":"0","Y":"0","Z":"0",},
    "frames":1,
 };
 {
    "dibujo":"false",
    "nombre":"pata1",
    "tras":{"X":"0","Y":"-0,05","Z":"0",},
    "rot":{"X":"0","Y":"0","Z":"-0,5",},
    "sca":{"X":"0","Y":"0","Z":"0",},
    "frames":1,
 };
 {
    "dibujo":"true",
    "tras":{"X":"0,1","Y":"0","Z":"0",},
    "rot":{"X":"0","Y":"0","Z":"0",},
    "sca":{"X":"0","Y":"0","Z":"0",},
    "frames":1,
};
{
    "dibujo":"false",
    "nombre":"pata3",
    "tras":{"X":"0","Y":"0,25","Z":"0",},
    "rot":{"X":"0","Y":"0","Z":"0,25",},
    "sca":{"X":"0","Y":"0","Z":"0",},
    "frames":1,
 };
 {
    "dibujo":"false",
    "nombre":"pata4",
    "tras":{"X":"0","Y":"0,25","Z":"0",},
    "rot":{"X":"0","Y":"0","Z":"0,25",},
    "sca":{"X":"0","Y":"0","Z":"0",},
    "frames":1,
 };
 {
    "dibujo":"false",
    "nombre":"pata4",
    "tras":{"X":"0","Y":"-0,45","Z":"0",},
    "rot":{"X":"0","Y":"0","Z":"-0,5",},
    "sca":{"X":"0","Y":"0","Z":"0",},
    "frames":1,
 };
 {
    "dibujo":"false",
    "nombre":"pata1",
    "tras":{"X":"0","Y":"0","Z":"0",},
    "rot":{"X":"0","Y":"0","Z":"0,25",},
    "sca":{"X":"0","Y":"0","Z":"0",},
    "frames":1,
 };
 {
    "dibujo":"false",
    "nombre":"pata2",
    "tras":{"X":"0","Y":"-0,05","Z":"0",},
    "rot":{"X":"0","Y":"0","Z":"-0,25",},
    "sca":{"X":"0","Y":"0","Z":"0",},
    "frames":1,
 };
 {
    "dibujo":"false",
    "nombre":"pata3",
    "tras":{"X":"0","Y":"-0,25","Z":"0",},
    "rot":{"X":"0","Y":"0","Z":"-0,25",},
    "sca":{"X":"0","Y":"0","Z":"0",},
    "frames":1,
 };
 {
    "dibujo":"false",
    "nombre":"pata4",
    "tras":{"X":"0","Y":"0,2","Z":"0",},
    "rot":{"X":"0","Y":"0","Z":"0,25",},
    "sca":{"X":"0","Y":"0","Z":"0",},
    "frames":1,
 };
{
    "dibujo":"false",
    "nombre":"pata1",
    "tras":{"X":"0","Y":"0,05","Z":"0",},
    "rot":{"X":"0","Y":"0","Z":"0,25",},
    "sca":{"X":"0","Y":"0","Z":"0",},
    "frames":1,
 };
 {
    "dibujo":"false",
    "nombre":"pata2",
    "tras":{"X":"0","Y":"0,05","Z":"0",},
    "rot":{"X":"0","Y":"0","Z":"0,25",},
    "sca":{"X":"0","Y":"0","Z":"0",},
    "frames":1,
 };
 {
    "dibujo":"false",
    "nombre":"pata1",
    "tras":{"X":"0","Y":"-0,05","Z":"0",},
    "rot":{"X":"0","Y":"0","Z":"-0,5",},
    "sca":{"X":"0","Y":"0","Z":"0",},
    "frames":1,
 };
 {
    "dibujo":"true",
    "tras":{"X":"0,1","Y":"0","Z":"0",},
    "rot":{"X":"0","Y":"0","Z":"0",},
    "sca":{"X":"0","Y":"0","Z":"0",},
    "frames":1,
};
{
    "dibujo":"false",
    "nombre":"pata3",
    "tras":{"X":"0","Y":"0,25","Z":"0",},
    "rot":{"X":"0","Y":"0","Z":"0,25",},
    "sca":{"X":"0","Y":"0","Z":"0",},
    "frames":1,
 };
 {
    "dibujo":"false",
    "nombre":"pata4",
    "tras":{"X":"0","Y":"0,25","Z":"0",},
    "rot":{"X":"0","Y":"0","Z":"0,25",},
    "sca":{"X":"0","Y":"0","Z":"0",},
    "frames":1,
 };
 {
    "dibujo":"false",
    "nombre":"pata4",
    "tras":{"X":"0","Y":"-0,45","Z":"0",},
    "rot":{"X":"0","Y":"0","Z":"-0,5",},
    "sca":{"X":"0","Y":"0","Z":"0",},
    "frames":1,
 };
 {
    "dibujo":"false",
    "nombre":"pata1",
    "tras":{"X":"0","Y":"0","Z":"0",},
    "rot":{"X":"0","Y":"0","Z":"0,25",},
    "sca":{"X":"0","Y":"0","Z":"0",},
    "frames":1,
 };
 {
    "dibujo":"false",
    "nombre":"pata2",
    "tras":{"X":"0","Y":"-0,05","Z":"0",},
    "rot":{"X":"0","Y":"0","Z":"-0,25",},
    "sca":{"X":"0","Y":"0","Z":"0",},
    "frames":1,
 };
 {
    "dibujo":"false",
    "nombre":"pata3",
    "tras":{"X":"0","Y":"-0,25","Z":"0",},
    "rot":{"X":"0","Y":"0","Z":"-0,25",},
    "sca":{"X":"0","Y":"0","Z":"0",},
    "frames":1,
 };
 {
    "dibujo":"false",
    "nombre":"pata4",
    "tras":{"X":"0","Y":"0,2","Z":"0",},
    "rot":{"X":"0","Y":"0","Z":"0,25",},
    "sca":{"X":"0","Y":"0","Z":"0",},
    "frames":1,
 };
{
    "dibujo":"false",
    "nombre":"pata1",
    "tras":{"X":"0","Y":"0,05","Z":"0",},
    "rot":{"X":"0","Y":"0","Z":"0,25",},
    "sca":{"X":"0","Y":"0","Z":"0",},
    "frames":1,
 };
 {
    "dibujo":"false",
    "nombre":"pata2",
    "tras":{"X":"0","Y":"0,05","Z":"0",},
    "rot":{"X":"0","Y":"0","Z":"0,25",},
    "sca":{"X":"0","Y":"0","Z":"0",},
    "frames":1,
 };
 {
    "dibujo":"false",
    "nombre":"pata1",
    "tras":{"X":"0","Y":"-0,05","Z":"0",},
    "rot":{"X":"0","Y":"0","Z":"-0,5",},
    "sca":{"X":"0","Y":"0","Z":"0",},
    "frames":1,
 };
 {
    "dibujo":"true",
    "tras":{"X":"0,1","Y":"0","Z":"0",},
    "rot":{"X":"0","Y":"0","Z":"0",},
    "sca":{"X":"0","Y":"0","Z":"0",},
    "frames":1,
};
{
    "dibujo":"false",
    "nombre":"pata3",
    "tras":{"X":"0","Y":"0,25","Z":"0",},
    "rot":{"X":"0","Y":"0","Z":"0,25",},
    "sca":{"X":"0","Y":"0","Z":"0",},
    "frames":1,
 };
 {
    "dibujo":"false",
    "nombre":"pata4",
    "tras":{"X":"0","Y":"0,25","Z":"0",},
    "rot":{"X":"0","Y":"0","Z":"0,25",},
    "sca":{"X":"0","Y":"0","Z":"0",},
    "frames":1,
 };
 {
    "dibujo":"false",
    "nombre":"pata4",
    "tras":{"X":"0","Y":"-0,45","Z":"0",},
    "rot":{"X":"0","Y":"0","Z":"-0,5",},
    "sca":{"X":"0","Y":"0","Z":"0",},
    "frames":1,
 };
 {
    "dibujo":"false",
    "nombre":"pata1",
    "tras":{"X":"0","Y":"0","Z":"0",},
    "rot":{"X":"0","Y":"0","Z":"0,25",},
    "sca":{"X":"0","Y":"0","Z":"0",},
    "frames":1,
 };
 {
    "dibujo":"false",
    "nombre":"pata2",
    "tras":{"X":"0","Y":"-0,05","Z":"0",},
    "rot":{"X":"0","Y":"0","Z":"-0,25",},
    "sca":{"X":"0","Y":"0","Z":"0",},
    "frames":1,
 };
 {
    "dibujo":"false",
    "nombre":"pata3",
    "tras":{"X":"0","Y":"-0,25","Z":"0",},
    "rot":{"X":"0","Y":"0","Z":"-0,25",},
    "sca":{"X":"0","Y":"0","Z":"0",},
    "frames":1,
 };
 {
    "dibujo":"false",
    "nombre":"pata4",
    "tras":{"X":"0","Y":"0,2","Z":"0",},
    "rot":{"X":"0","Y":"0","Z":"0,25",},
    "sca":{"X":"0","Y":"0","Z":"0",},
    "frames":1,
 };
{
    "dibujo":"false",
    "nombre":"pata1",
    "tras":{"X":"0","Y":"0,05","Z":"0",},
    "rot":{"X":"0","Y":"0","Z":"0,25",},
    "sca":{"X":"0","Y":"0","Z":"0",},
    "frames":1,
 };
 {
    "dibujo":"false",
    "nombre":"pata2",
    "tras":{"X":"0","Y":"0,05","Z":"0",},
    "rot":{"X":"0","Y":"0","Z":"0,25",},
    "sca":{"X":"0","Y":"0","Z":"0",},
    "frames":1,
 };
 {
    "dibujo":"false",
    "nombre":"pata1",
    "tras":{"X":"0","Y":"-0,05","Z":"0",},
    "rot":{"X":"0","Y":"0","Z":"-0,5",},
    "sca":{"X":"0","Y":"0","Z":"0",},
    "frames":1,
 };
 {
    "dibujo":"true",
    "tras":{"X":"0,1","Y":"0","Z":"0",},
    "rot":{"X":"0","Y":"0","Z":"0",},
    "sca":{"X":"0","Y":"0","Z":"0",},
    "frames":1,
};
{
    "dibujo":"false",
    "nombre":"pata3",
    "tras":{"X":"0","Y":"0,25","Z":"0",},
    "rot":{"X":"0","Y":"0","Z":"0,25",},
    "sca":{"X":"0","Y":"0","Z":"0",},
    "frames":1,
 };
 {
    "dibujo":"false",
    "nombre":"pata4",
    "tras":{"X":"0","Y":"0,25","Z":"0",},
    "rot":{"X":"0","Y":"0","Z":"0,25",},
    "sca":{"X":"0","Y":"0","Z":"0",},
    "frames":1,
 };
 {
    "dibujo":"false",
    "nombre":"pata4",
    "tras":{"X":"0","Y":"-0,45","Z":"0",},
    "rot":{"X":"0","Y":"0","Z":"-0,5",},
    "sca":{"X":"0","Y":"0","Z":"0",},
    "frames":1,
 };
 {
    "dibujo":"false",
    "nombre":"pata1",
    "tras":{"X":"0","Y":"0","Z":"0",},
    "rot":{"X":"0","Y":"0","Z":"0,25",},
    "sca":{"X":"0","Y":"0","Z":"0",},
    "frames":1,
 };
 {
    "dibujo":"false",
    "nombre":"pata2",
    "tras":{"X":"0","Y":"-0,05","Z":"0",},
    "rot":{"X":"0","Y":"0","Z":"-0,25",},
    "sca":{"X":"0","Y":"0","Z":"0",},
    "frames":1,
 };
 {
    "dibujo":"false",
    "nombre":"pata3",
    "tras":{"X":"0","Y":"-0,25","Z":"0",},
    "rot":{"X":"0","Y":"0","Z":"-0,25",},
    "sca":{"X":"0","Y":"0","Z":"0",},
    "frames":1,
 };
 {
    "dibujo":"false",
    "nombre":"pata4",
    "tras":{"X":"0","Y":"0,2","Z":"0",},
    "rot":{"X":"0","Y":"0","Z":"0,25",},
    "sca":{"X":"0","Y":"0","Z":"0",},
    "frames":1,
 };
{
    "dibujo":"false",
    "nombre":"pata1",
    "tras":{"X":"0","Y":"0,05","Z":"0",},
    "rot":{"X":"0","Y":"0","Z":"0,25",},
    "sca":{"X":"0","Y":"0","Z":"0",},
    "frames":1,
 };
 {
    "dibujo":"false",
    "nombre":"pata2",
    "tras":{"X":"0","Y":"0,05","Z":"0",},
    "rot":{"X":"0","Y":"0","Z":"0,25",},
    "sca":{"X":"0","Y":"0","Z":"0",},
    "frames":1,
 };
 {
    "dibujo":"false",
    "nombre":"pata1",
    "tras":{"X":"0","Y":"-0,05","Z":"0",},
    "rot":{"X":"0","Y":"0","Z":"-0,5",},
    "sca":{"X":"0","Y":"0","Z":"0",},
    "frames":1,
 };
 {
    "dibujo":"true",
    "tras":{"X":"0,1","Y":"0","Z":"0",},
    "rot":{"X":"0","Y":"0","Z":"0",},
    "sca":{"X":"0","Y":"0","Z":"0",},
    "frames":1,
};
{
    "dibujo":"false",
    "nombre":"pata3",
    "tras":{"X":"0","Y":"0,25","Z":"0",},
    "rot":{"X":"0","Y":"0","Z":"0,25",},
    "sca":{"X":"0","Y":"0","Z":"0",},
    "frames":1,
 };
 {
    "dibujo":"false",
    "nombre":"pata4",
    "tras":{"X":"0","Y":"0,25","Z":"0",},
    "rot":{"X":"0","Y":"0","Z":"0,25",},
    "sca":{"X":"0","Y":"0","Z":"0",},
    "frames":1,
 };
 {
    "dibujo":"false",
    "nombre":"pata4",
    "tras":{"X":"0","Y":"-0,45","Z":"0",},
    "rot":{"X":"0","Y":"0","Z":"-0,5",},
    "sca":{"X":"0","Y":"0","Z":"0",},
    "frames":1,
 };
 {
    "dibujo":"false",
    "nombre":"pata1",
    "tras":{"X":"0","Y":"0","Z":"0",},
    "rot":{"X":"0","Y":"0","Z":"0,25",},
    "sca":{"X":"0","Y":"0","Z":"0",},
    "frames":1,
 };
 {
    "dibujo":"false",
    "nombre":"pata2",
    "tras":{"X":"0","Y":"-0,05","Z":"0",},
    "rot":{"X":"0","Y":"0","Z":"-0,25",},
    "sca":{"X":"0","Y":"0","Z":"0",},
    "frames":1,
 };
 {
    "dibujo":"false",
    "nombre":"pata3",
    "tras":{"X":"0","Y":"-0,25","Z":"0",},
    "rot":{"X":"0","Y":"0","Z":"-0,25",},
    "sca":{"X":"0","Y":"0","Z":"0",},
    "frames":1,
 };
 {
    "dibujo":"false",
    "nombre":"pata4",
    "tras":{"X":"0","Y":"0,2","Z":"0",},
    "rot":{"X":"0","Y":"0","Z":"0,25",},
    "sca":{"X":"0","Y":"0","Z":"0",},
    "frames":1,
 };
{
    "dibujo":"false",
    "nombre":"pata1",
    "tras":{"X":"0","Y":"0,05","Z":"0",},
    "rot":{"X":"0","Y":"0","Z":"0,25",},
    "sca":{"X":"0","Y":"0","Z":"0",},
    "frames":1,
 };
 {
    "dibujo":"false",
    "nombre":"pata2",
    "tras":{"X":"0","Y":"0,05","Z":"0",},
    "rot":{"X":"0","Y":"0","Z":"0,25",},
    "sca":{"X":"0","Y":"0","Z":"0",},
    "frames":1,
 };
 {
    "dibujo":"false",
    "nombre":"pata1",
    "tras":{"X":"0","Y":"-0,05","Z":"0",},
    "rot":{"X":"0","Y":"0","Z":"-0,5",},
    "sca":{"X":"0","Y":"0","Z":"0",},
    "frames":1,
 };
 {
    "dibujo":"true",
    "tras":{"X":"0,1","Y":"0","Z":"0",},
    "rot":{"X":"0","Y":"0","Z":"0",},
    "sca":{"X":"0","Y":"0","Z":"0",},
    "frames":1,
};
{
    "dibujo":"false",
    "nombre":"pata3",
    "tras":{"X":"0","Y":"0,25","Z":"0",},
    "rot":{"X":"0","Y":"0","Z":"0,25",},
    "sca":{"X":"0","Y":"0","Z":"0",},
    "frames":1,
 };
 {
    "dibujo":"false",
    "nombre":"pata4",
    "tras":{"X":"0","Y":"0,25","Z":"0",},
    "rot":{"X":"0","Y":"0","Z":"0,25",},
    "sca":{"X":"0","Y":"0","Z":"0",},
    "frames":1,
 };
 {
    "dibujo":"false",
    "nombre":"pata4",
    "tras":{"X":"0","Y":"-0,45","Z":"0",},
    "rot":{"X":"0","Y":"0","Z":"-0,5",},
    "sca":{"X":"0","Y":"0","Z":"0",},
    "frames":1,
 };
 {
    "dibujo":"false",
    "nombre":"pata1",
    "tras":{"X":"0","Y":"0","Z":"0",},
    "rot":{"X":"0","Y":"0","Z":"0,25",},
    "sca":{"X":"0","Y":"0","Z":"0",},
    "frames":1,
 };
 {
    "dibujo":"false",
    "nombre":"pata2",
    "tras":{"X":"0","Y":"-0,05","Z":"0",},
    "rot":{"X":"0","Y":"0","Z":"-0,25",},
    "sca":{"X":"0","Y":"0","Z":"0",},
    "frames":1,
 };
 {
    "dibujo":"false",
    "nombre":"pata3",
    "tras":{"X":"0","Y":"-0,25","Z":"0",},
    "rot":{"X":"0","Y":"0","Z":"-0,25",},
    "sca":{"X":"0","Y":"0","Z":"0",},
    "frames":1,
 };
 {
    "dibujo":"false",
    "nombre":"pata4",
    "tras":{"X":"0","Y":"0,2","Z":"0",},
    "rot":{"X":"0","Y":"0","Z":"0,25",},
    "sca":{"X":"0","Y":"0","Z":"0",},
    "frames":1,
 };
{
    "dibujo":"false",
    "nombre":"pata1",
    "tras":{"X":"0","Y":"0,05","Z":"0",},
    "rot":{"X":"0","Y":"0","Z":"0,25",},
    "sca":{"X":"0","Y":"0","Z":"0",},
    "frames":1,
 };
 {
    "dibujo":"false",
    "nombre":"pata2",
    "tras":{"X":"0","Y":"0,05","Z":"0",},
    "rot":{"X":"0","Y":"0","Z":"0,25",},
    "sca":{"X":"0","Y":"0","Z":"0",},
    "frames":1,
 };
 {
    "dibujo":"false",
    "nombre":"pata1",
    "tras":{"X":"0","Y":"-0,05","Z":"0",},
    "rot":{"X":"0","Y":"0","Z":"-0,5",},
    "sca":{"X":"0","Y":"0","Z":"0",},
    "frames":1,
 };
 {
    "dibujo":"true",
    "tras":{"X":"0,1","Y":"0","Z":"0",},
    "rot":{"X":"0","Y":"0","Z":"0",},
    "sca":{"X":"0","Y":"0","Z":"0",},
    "frames":1,
};
{
    "dibujo":"false",
    "nombre":"pata3",
    "tras":{"X":"0","Y":"0,25","Z":"0",},
    "rot":{"X":"0","Y":"0","Z":"0,25",},
    "sca":{"X":"0","Y":"0","Z":"0",},
    "frames":1,
 };
 {
    "dibujo":"false",
    "nombre":"pata4",
    "tras":{"X":"0","Y":"0,25","Z":"0",},
    "rot":{"X":"0","Y":"0","Z":"0,25",},
    "sca":{"X":"0","Y":"0","Z":"0",},
    "frames":1,
 };
 {
    "dibujo":"false",
    "nombre":"pata4",
    "tras":{"X":"0","Y":"-0,45","Z":"0",},
    "rot":{"X":"0","Y":"0","Z":"-0,5",},
    "sca":{"X":"0","Y":"0","Z":"0",},
    "frames":1,
 };
 {
    "dibujo":"false",
    "nombre":"pata1",
    "tras":{"X":"0","Y":"0","Z":"0",},
    "rot":{"X":"0","Y":"0","Z":"0,25",},
    "sca":{"X":"0","Y":"0","Z":"0",},
    "frames":1,
 };
 {
    "dibujo":"false",
    "nombre":"pata2",
    "tras":{"X":"0","Y":"-0,05","Z":"0",},
    "rot":{"X":"0","Y":"0","Z":"-0,25",},
    "sca":{"X":"0","Y":"0","Z":"0",},
    "frames":1,
 };
 {
    "dibujo":"false",
    "nombre":"pata3",
    "tras":{"X":"0","Y":"-0,25","Z":"0",},
    "rot":{"X":"0","Y":"0","Z":"-0,25",},
    "sca":{"X":"0","Y":"0","Z":"0",},
    "frames":1,
 };
 {
    "dibujo":"false",
    "nombre":"pata4",
    "tras":{"X":"0","Y":"0,2","Z":"0",},
    "rot":{"X":"0","Y":"0","Z":"0,25",},
    "sca":{"X":"0","Y":"0","Z":"0",},
    "frames":1,
 };
{
    "dibujo":"false",
    "nombre":"pata1",
    "tras":{"X":"0","Y":"0,05","Z":"0",},
    "rot":{"X":"0","Y":"0","Z":"0,25",},
    "sca":{"X":"0","Y":"0","Z":"0",},
    "frames":1,
 };
 {
    "dibujo":"false",
    "nombre":"pata2",
    "tras":{"X":"0","Y":"0,05","Z":"0",},
    "rot":{"X":"0","Y":"0","Z":"0,25",},
    "sca":{"X":"0","Y":"0","Z":"0",},
    "frames":1,
 };
 {
    "dibujo":"false",
    "nombre":"pata1",
    "tras":{"X":"0","Y":"-0,05","Z":"0",},
    "rot":{"X":"0","Y":"0","Z":"-0,5",},
    "sca":{"X":"0","Y":"0","Z":"0",},
    "frames":1,
 };
 {
    "dibujo":"true",
    "tras":{"X":"0,1","Y":"0","Z":"0",},
    "rot":{"X":"0","Y":"0","Z":"0",},
    "sca":{"X":"0","Y":"0","Z":"0",},
    "frames":1,
};
{
    "dibujo":"false",
    "nombre":"pata3",
    "tras":{"X":"0","Y":"0,25","Z":"0",},
    "rot":{"X":"0","Y":"0","Z":"0,25",},
    "sca":{"X":"0","Y":"0","Z":"0",},
    "frames":1,
 };
 {
    "dibujo":"false",
    "nombre":"pata4",
    "tras":{"X":"0","Y":"0,25","Z":"0",},
    "rot":{"X":"0","Y":"0","Z":"0,25",},
    "sca":{"X":"0","Y":"0","Z":"0",},
    "frames":1,
 };
 {
    "dibujo":"false",
    "nombre":"pata4",
    "tras":{"X":"0","Y":"-0,45","Z":"0",},
    "rot":{"X":"0","Y":"0","Z":"-0,5",},
    "sca":{"X":"0","Y":"0","Z":"0",},
    "frames":1,
 };
 {
    "dibujo":"false",
    "nombre":"pata1",
    "tras":{"X":"0","Y":"0","Z":"0",},
    "rot":{"X":"0","Y":"0","Z":"0,25",},
    "sca":{"X":"0","Y":"0","Z":"0",},
    "frames":1,
 };
 {
    "dibujo":"false",
    "nombre":"pata2",
    "tras":{"X":"0","Y":"-0,05","Z":"0",},
    "rot":{"X":"0","Y":"0","Z":"-0,25",},
    "sca":{"X":"0","Y":"0","Z":"0",},
    "frames":1,
 };
 {
    "dibujo":"false",
    "nombre":"pata3",
    "tras":{"X":"0","Y":"-0,25","Z":"0",},
    "rot":{"X":"0","Y":"0","Z":"-0,25",},
    "sca":{"X":"0","Y":"0","Z":"0",},
    "frames":1,
 };
 {
    "dibujo":"false",
    "nombre":"pata4",
    "tras":{"X":"0","Y":"0,2","Z":"0",},
    "rot":{"X":"0","Y":"0","Z":"0,25",},
    "sca":{"X":"0","Y":"0","Z":"0",},
    "frames":1,
 };
{
    "dibujo":"false",
    "nombre":"pata1",
    "tras":{"X":"0","Y":"0,05","Z":"0",},
    "rot":{"X":"0","Y":"0","Z":"0,25",},
    "sca":{"X":"0","Y":"0","Z":"0",},
    "frames":1,
 };
 {
    "dibujo":"false",
    "nombre":"pata2",
    "tras":{"X":"0","Y":"0,05","Z":"0",},
    "rot":{"X":"0","Y":"0","Z":"0,25",},
    "sca":{"X":"0","Y":"0","Z":"0",},
    "frames":1,
 };
 {
    "dibujo":"false",
    "nombre":"pata1",
    "tras":{"X":"0","Y":"-0,05","Z":"0",},
    "rot":{"X":"0","Y":"0","Z":"-0,5",},
    "sca":{"X":"0","Y":"0","Z":"0",},
    "frames":1,
 };
 {
    "dibujo":"true",
    "tras":{"X":"0,1","Y":"0","Z":"0",},
    "rot":{"X":"0","Y":"0","Z":"0",},
    "sca":{"X":"0","Y":"0","Z":"0",},
    "frames":1,
};
{
    "dibujo":"false",
    "nombre":"pata3",
    "tras":{"X":"0","Y":"0,25","Z":"0",},
    "rot":{"X":"0","Y":"0","Z":"0,25",},
    "sca":{"X":"0","Y":"0","Z":"0",},
    "frames":1,
 };
 {
    "dibujo":"false",
    "nombre":"pata4",
    "tras":{"X":"0","Y":"0,25","Z":"0",},
    "rot":{"X":"0","Y":"0","Z":"0,25",},
    "sca":{"X":"0","Y":"0","Z":"0",},
    "frames":1,
 };
 {
    "dibujo":"false",
    "nombre":"pata4",
    "tras":{"X":"0","Y":"-0,45","Z":"0",},
    "rot":{"X":"0","Y":"0","Z":"-0,5",},
    "sca":{"X":"0","Y":"0","Z":"0",},
    "frames":1,
 };
 {
    "dibujo":"false",
    "nombre":"pata1",
    "tras":{"X":"0","Y":"0","Z":"0",},
    "rot":{"X":"0","Y":"0","Z":"0,25",},
    "sca":{"X":"0","Y":"0","Z":"0",},
    "frames":1,
 };
 {
    "dibujo":"false",
    "nombre":"pata2",
    "tras":{"X":"0","Y":"-0,05","Z":"0",},
    "rot":{"X":"0","Y":"0","Z":"-0,25",},
    "sca":{"X":"0","Y":"0","Z":"0",},
    "frames":1,
 };
 {
    "dibujo":"false",
    "nombre":"pata3",
    "tras":{"X":"0","Y":"-0,25","Z":"0",},
    "rot":{"X":"0","Y":"0","Z":"-0,25",},
    "sca":{"X":"0","Y":"0","Z":"0",},
    "frames":1,
 };
 {
    "dibujo":"false",
    "nombre":"pata4",
    "tras":{"X":"0","Y":"0,2","Z":"0",},
    "rot":{"X":"0","Y":"0","Z":"0,25",},
    "sca":{"X":"0","Y":"0","Z":"0",},
    "frames":1,
 };
{
    "dibujo":"true",
    "tras":{"X":"0","Y":"0","Z":"0",},
    "rot":{"X":"0","Y":"0,0625","Z":"0",},
    "sca":{"X":"0","Y":"0","Z":"0",},
    "frames":25,
};
{
    "dibujo":"false",
    "nombre":"pata3",
    "tras":{"X":"-0,25","Y":"0","Z":"0",},
    "rot":{"X":"0","Y":"0","Z":"0",},
    "sca":{"X":"0","Y":"0","Z":"0",},
    "frames":1,
 };
{
    "dibujo":"false",
    "nombre":"pata1",
    "tras":{"X":"0,25","Y":"0","Z":"0,25",},
    "rot":{"X":"-0,25","Y":"-1,5625","Z":"0",},
    "sca":{"X":"0","Y":"0","Z":"0",},
    "frames":1,
 };
 {
    "dibujo":"false",
    "nombre":"pata2",
    "tras":{"X":"1,05","Y":"0,2","Z":"-0,7",},
    "rot":{"X":"-0,25","Y":"-1,5625","Z":"0",},
    "sca":{"X":"0","Y":"0","Z":"0",},
    "frames":1,
 };
 {
    "dibujo":"false",
    "nombre":"pata1",
    "tras":{"X":"0","Y":"0,05","Z":"0",},
    "rot":{"X":"0,5","Y":"0","Z":"0",},
    "sca":{"X":"0","Y":"0","Z":"0",},
    "frames":1,
 };
 {
    "dibujo":"false",
    "nombre":"pata3",
    "tras":{"X":"1,09","Y":"0,1","Z":"0,7",},
    "rot":{"X":"-0,25","Y":"-1,5625","Z":"0",},
    "sca":{"X":"0","Y":"0","Z":"0",},
    "frames":1,
 };
 {
    "dibujo":"true",
    "tras":{"X":"0","Y":"0","Z":"0,05",},
    "rot":{"X":"0","Y":"0","Z":"0",},
    "sca":{"X":"0","Y":"0","Z":"0",},
    "frames":1,
};
{
    "dibujo":"false",
    "nombre":"pata4",
    "tras":{"X":"1,69","Y":"0,25","Z":"0,1",},
    "rot":{"X":"-0,25","Y":"-1,5625","Z":"0",},
    "sca":{"X":"0","Y":"0","Z":"0",},
    "frames":1,
 };
 {
    "dibujo":"false",
    "nombre":"pata4",
    "tras":{"X":"0","Y":"-0,45","Z":"0",},
    "rot":{"X":"0,5","Y":"0","Z":"0",},
    "sca":{"X":"0","Y":"0","Z":"0",},
    "frames":1,
 };
 {
    "dibujo":"false",
    "nombre":"pata1",
    "tras":{"X":"0","Y":"-0,05","Z":"0",},
    "rot":{"X":"-0,25","Y":"0","Z":"0",},
    "sca":{"X":"0","Y":"0","Z":"0",},
    "frames":1,
 };
 {
    "dibujo":"false",
    "nombre":"pata2",
    "tras":{"X":"0","Y":"-0,25","Z":"0",},
    "rot":{"X":"0,25","Y":"0","Z":"0",},
    "sca":{"X":"0","Y":"0","Z":"0",},
    "frames":1,
 };
 {
    "dibujo":"false",
    "nombre":"pata3",
    "tras":{"X":"0","Y":"-0,05","Z":"0",},
    "rot":{"X":"0,25","Y":"0","Z":"0",},
    "sca":{"X":"0","Y":"0","Z":"0",},
    "frames":1,
 };
 {
    "dibujo":"false",
    "nombre":"pata4",
    "tras":{"X":"0","Y":"0,25","Z":"0",},
    "rot":{"X":"-0,25","Y":"0","Z":"0",},
    "sca":{"X":"0","Y":"0","Z":"0",},
    "frames":1,
 };
{
    "dibujo":"false",
    "nombre":"pata1",
    "tras":{"X":"0","Y":"0","Z":"0",},
    "rot":{"X":"-0,25","Y":"0","Z":"0",},
    "sca":{"X":"0","Y":"0","Z":"0",},
    "frames":1,
 };
 {
    "dibujo":"false",
    "nombre":"pata2",
    "tras":{"X":"0","Y":"0,2","Z":"0",},
    "rot":{"X":"-0,25","Y":"0","Z":"0",},
    "sca":{"X":"0","Y":"0","Z":"0",},
    "frames":1,
 };
 {
    "dibujo":"false",
    "nombre":"pata1",
    "tras":{"X":"0","Y":"0,05","Z":"0",},
    "rot":{"X":"0,5","Y":"0","Z":"0",},
    "sca":{"X":"0","Y":"0","Z":"0",},
    "frames":1,
 };
 {
    "dibujo":"false",
    "nombre":"pata3",
    "tras":{"X":"0","Y":"0,1","Z":"0",},
    "rot":{"X":"-0,25","Y":"0","Z":"0",},
    "sca":{"X":"0","Y":"0","Z":"0",},
    "frames":1,
 };
 {
    "dibujo":"true",
    "tras":{"X":"0","Y":"0","Z":"0,05",},
    "rot":{"X":"0","Y":"0","Z":"0",},
    "sca":{"X":"0","Y":"0","Z":"0",},
    "frames":1,
};
{
    "dibujo":"false",
    "nombre":"pata4",
    "tras":{"X":"0","Y":"0,25","Z":"0",},
    "rot":{"X":"-0,25","Y":"0","Z":"0",},
    "sca":{"X":"0","Y":"0","Z":"0",},
    "frames":1,
 };
 {
    "dibujo":"false",
    "nombre":"pata4",
    "tras":{"X":"0","Y":"-0,45","Z":"0",},
    "rot":{"X":"0,5","Y":"0","Z":"0",},
    "sca":{"X":"0","Y":"0","Z":"0",},
    "frames":1,
 };
 {
    "dibujo":"false",
    "nombre":"pata1",
    "tras":{"X":"0","Y":"-0,05","Z":"0",},
    "rot":{"X":"-0,25","Y":"0","Z":"0",},
    "sca":{"X":"0","Y":"0","Z":"0",},
    "frames":1,
 };
 {
    "dibujo":"false",
    "nombre":"pata2",
    "tras":{"X":"0","Y":"-0,25","Z":"0",},
    "rot":{"X":"0,25","Y":"0","Z":"0",},
    "sca":{"X":"0","Y":"0","Z":"0",},
    "frames":1,
 };
 {
    "dibujo":"false",
    "nombre":"pata3",
    "tras":{"X":"0","Y":"-0,1","Z":"0",},
    "rot":{"X":"0,25","Y":"0","Z":"0",},
    "sca":{"X":"0","Y":"0","Z":"0",},
    "frames":1,
 };
 {
    "dibujo":"false",
    "nombre":"pata4",
    "tras":{"X":"0","Y":"0,2","Z":"0",},
    "rot":{"X":"-0,25","Y":"0","Z":"0",},
    "sca":{"X":"0","Y":"0","Z":"0",},
    "frames":1,
 };{
    "dibujo":"false",
    "nombre":"pata1",
    "tras":{"X":"0","Y":"0","Z":"0",},
    "rot":{"X":"-0,25","Y":"0","Z":"0",},
    "sca":{"X":"0","Y":"0","Z":"0",},
    "frames":1,
 };
 {
    "dibujo":"false",
    "nombre":"pata2",
    "tras":{"X":"0","Y":"0,2","Z":"0",},
    "rot":{"X":"-0,25","Y":"0","Z":"0",},
    "sca":{"X":"0","Y":"0","Z":"0",},
    "frames":1,
 };
 {
    "dibujo":"false",
    "nombre":"pata1",
    "tras":{"X":"0","Y":"0,05","Z":"0",},
    "rot":{"X":"0,5","Y":"0","Z":"0",},
    "sca":{"X":"0","Y":"0","Z":"0",},
    "frames":1,
 };
 {
    "dibujo":"false",
    "nombre":"pata3",
    "tras":{"X":"0","Y":"0,1","Z":"0",},
    "rot":{"X":"-0,25","Y":"0","Z":"0",},
    "sca":{"X":"0","Y":"0","Z":"0",},
    "frames":1,
 };
 {
    "dibujo":"true",
    "tras":{"X":"0","Y":"0","Z":"0,05",},
    "rot":{"X":"0","Y":"0","Z":"0",},
    "sca":{"X":"0","Y":"0","Z":"0",},
    "frames":1,
};
{
    "dibujo":"false",
    "nombre":"pata4",
    "tras":{"X":"0","Y":"0,25","Z":"0",},
    "rot":{"X":"-0,25","Y":"0","Z":"0",},
    "sca":{"X":"0","Y":"0","Z":"0",},
    "frames":1,
 };
 {
    "dibujo":"false",
    "nombre":"pata4",
    "tras":{"X":"0","Y":"-0,45","Z":"0",},
    "rot":{"X":"0,5","Y":"0","Z":"0",},
    "sca":{"X":"0","Y":"0","Z":"0",},
    "frames":1,
 };
 {
    "dibujo":"false",
    "nombre":"pata1",
    "tras":{"X":"0","Y":"-0,05","Z":"0",},
    "rot":{"X":"-0,25","Y":"0","Z":"0",},
    "sca":{"X":"0","Y":"0","Z":"0",},
    "frames":1,
 };
 {
    "dibujo":"false",
    "nombre":"pata2",
    "tras":{"X":"0","Y":"-0,2","Z":"0",},
    "rot":{"X":"0,25","Y":"0","Z":"0",},
    "sca":{"X":"0","Y":"0","Z":"0",},
    "frames":1,
 };
 {
    "dibujo":"false",
    "nombre":"pata3",
    "tras":{"X":"0","Y":"-0,1","Z":"0",},
    "rot":{"X":"0,25","Y":"0","Z":"0",},
    "sca":{"X":"0","Y":"0","Z":"0",},
    "frames":1,
 };
 {
    "dibujo":"false",
    "nombre":"pata4",
    "tras":{"X":"0","Y":"0,2","Z":"0",},
    "rot":{"X":"-0,25","Y":"0","Z":"0",},
    "sca":{"X":"0","Y":"0","Z":"0",},
    "frames":1,
 };
 {
    "dibujo":"false",
    "nombre":"pata1",
    "tras":{"X":"0","Y":"0","Z":"0",},
    "rot":{"X":"-0,25","Y":"0","Z":"0",},
    "sca":{"X":"0","Y":"0","Z":"0",},
    "frames":1,
 };
 {
    "dibujo":"false",
    "nombre":"pata2",
    "tras":{"X":"0","Y":"0,2","Z":"0",},
    "rot":{"X":"-0,25","Y":"0","Z":"0",},
    "sca":{"X":"0","Y":"0","Z":"0",},
    "frames":1,
 };
 {
    "dibujo":"false",
    "nombre":"pata1",
    "tras":{"X":"0","Y":"0,05","Z":"0",},
    "rot":{"X":"0,5","Y":"0","Z":"0",},
    "sca":{"X":"0","Y":"0","Z":"0",},
    "frames":1,
 };
 {
    "dibujo":"false",
    "nombre":"pata3",
    "tras":{"X":"0","Y":"0,1","Z":"0",},
    "rot":{"X":"-0,25","Y":"0","Z":"0",},
    "sca":{"X":"0","Y":"0","Z":"0",},
    "frames":1,
 };
 {
    "dibujo":"true",
    "tras":{"X":"0","Y":"0","Z":"0,05",},
    "rot":{"X":"0","Y":"0","Z":"0",},
    "sca":{"X":"0","Y":"0","Z":"0",},
    "frames":1,
};
{
    "dibujo":"false",
    "nombre":"pata4",
    "tras":{"X":"0","Y":"0,25","Z":"0",},
    "rot":{"X":"-0,25","Y":"0","Z":"0",},
    "sca":{"X":"0","Y":"0","Z":"0",},
    "frames":1,
 };
 {
    "dibujo":"false",
    "nombre":"pata4",
    "tras":{"X":"0","Y":"-0,45","Z":"0",},
    "rot":{"X":"0,5","Y":"0","Z":"0",},
    "sca":{"X":"0","Y":"0","Z":"0",},
    "frames":1,
 };
 {
    "dibujo":"false",
    "nombre":"pata1",
    "tras":{"X":"0","Y":"-0,05","Z":"0",},
    "rot":{"X":"-0,25","Y":"0","Z":"0",},
    "sca":{"X":"0","Y":"0","Z":"0",},
    "frames":1,
 };
 {
    "dibujo":"false",
    "nombre":"pata2",
    "tras":{"X":"0","Y":"-0,25","Z":"0",},
    "rot":{"X":"0,25","Y":"0","Z":"0",},
    "sca":{"X":"0","Y":"0","Z":"0",},
    "frames":1,
 };
 {
    "dibujo":"false",
    "nombre":"pata3",
    "tras":{"X":"0","Y":"-0,1","Z":"0",},
    "rot":{"X":"0,25","Y":"0","Z":"0",},
    "sca":{"X":"0","Y":"0","Z":"0",},
    "frames":1,
 };
 {
    "dibujo":"false",
    "nombre":"pata4",
    "tras":{"X":"0","Y":"0,2","Z":"0",},
    "rot":{"X":"-0,25","Y":"0","Z":"0",},
    "sca":{"X":"0","Y":"0","Z":"0",},
    "frames":1,
 };
 {
    "dibujo":"false",
    "nombre":"pata1",
    "tras":{"X":"0","Y":"0","Z":"0",},
    "rot":{"X":"-0,25","Y":"0","Z":"0",},
    "sca":{"X":"0","Y":"0","Z":"0",},
    "frames":1,
 };
 {
    "dibujo":"false",
    "nombre":"pata2",
    "tras":{"X":"0","Y":"0,25","Z":"0",},
    "rot":{"X":"-0,25","Y":"0","Z":"0",},
    "sca":{"X":"0","Y":"0","Z":"0",},
    "frames":1,
 };
 {
    "dibujo":"false",
    "nombre":"pata1",
    "tras":{"X":"0","Y":"0,05","Z":"0",},
    "rot":{"X":"0,5","Y":"0","Z":"0",},
    "sca":{"X":"0","Y":"0","Z":"0",},
    "frames":1,
 };
 {
    "dibujo":"false",
    "nombre":"pata3",
    "tras":{"X":"0","Y":"0,1","Z":"0",},
    "rot":{"X":"-0,25","Y":"0","Z":"0",},
    "sca":{"X":"0","Y":"0","Z":"0",},
    "frames":1,
 };
 {
    "dibujo":"true",
    "tras":{"X":"0","Y":"0","Z":"0,05",},
    "rot":{"X":"0","Y":"0","Z":"0",},
    "sca":{"X":"0","Y":"0","Z":"0",},
    "frames":1,
};
{
    "dibujo":"false",
    "nombre":"pata4",
    "tras":{"X":"0","Y":"0,25","Z":"0",},
    "rot":{"X":"-0,25","Y":"0","Z":"0",},
    "sca":{"X":"0","Y":"0","Z":"0",},
    "frames":1,
 };
 {
    "dibujo":"false",
    "nombre":"pata4",
    "tras":{"X":"0","Y":"-0,45","Z":"0",},
    "rot":{"X":"0,5","Y":"0","Z":"0",},
    "sca":{"X":"0","Y":"0","Z":"0",},
    "frames":1,
 };
 {
    "dibujo":"false",
    "nombre":"pata1",
    "tras":{"X":"0","Y":"-0,05","Z":"0",},
    "rot":{"X":"-0,25","Y":"0","Z":"0",},
    "sca":{"X":"0","Y":"0","Z":"0",},
    "frames":1,
 };
 {
    "dibujo":"false",
    "nombre":"pata2",
    "tras":{"X":"0","Y":"-0,2","Z":"0",},
    "rot":{"X":"0,25","Y":"0","Z":"0",},
    "sca":{"X":"0","Y":"0","Z":"0",},
    "frames":1,
 };
 {
    "dibujo":"false",
    "nombre":"pata3",
    "tras":{"X":"0","Y":"-0,1","Z":"0",},
    "rot":{"X":"0,25","Y":"0","Z":"0",},
    "sca":{"X":"0","Y":"0","Z":"0",},
    "frames":1,
 };
 {
    "dibujo":"false",
    "nombre":"pata4",
    "tras":{"X":"0","Y":"0,2","Z":"0",},
    "rot":{"X":"-0,25","Y":"0","Z":"0",},
    "sca":{"X":"0","Y":"0","Z":"0",},
    "frames":1,
 };
 {
    "dibujo":"false",
    "nombre":"pata1",
    "tras":{"X":"0","Y":"0","Z":"0",},
    "rot":{"X":"-0,25","Y":"0","Z":"0",},
    "sca":{"X":"0","Y":"0","Z":"0",},
    "frames":1,
 };
 {
    "dibujo":"false",
    "nombre":"pata2",
    "tras":{"X":"0","Y":"0,25","Z":"0",},
    "rot":{"X":"-0,25","Y":"0","Z":"0",},
    "sca":{"X":"0","Y":"0","Z":"0",},
    "frames":1,
 };
 {
    "dibujo":"false",
    "nombre":"pata1",
    "tras":{"X":"0","Y":"0,05","Z":"0",},
    "rot":{"X":"0,5","Y":"0","Z":"0",},
    "sca":{"X":"0","Y":"0","Z":"0",},
    "frames":1,
 };
 {
    "dibujo":"false",
    "nombre":"pata3",
    "tras":{"X":"0","Y":"0,1","Z":"0",},
    "rot":{"X":"-0,25","Y":"0","Z":"0",},
    "sca":{"X":"0","Y":"0","Z":"0",},
    "frames":1,
 };
 {
    "dibujo":"true",
    "tras":{"X":"0","Y":"0","Z":"0,05",},
    "rot":{"X":"0","Y":"0","Z":"0",},
    "sca":{"X":"0","Y":"0","Z":"0",},
    "frames":1,
};
{
    "dibujo":"false",
    "nombre":"pata4",
    "tras":{"X":"0","Y":"0,25","Z":"0",},
    "rot":{"X":"-0,25","Y":"0","Z":"0",},
    "sca":{"X":"0","Y":"0","Z":"0",},
    "frames":1,
 };
 {
    "dibujo":"false",
    "nombre":"pata4",
    "tras":{"X":"0","Y":"-0,45","Z":"0",},
    "rot":{"X":"0,5","Y":"0","Z":"0",},
    "sca":{"X":"0","Y":"0","Z":"0",},
    "frames":1,
 };
 {
    "dibujo":"false",
    "nombre":"pata1",
    "tras":{"X":"0","Y":"-0,05","Z":"0",},
    "rot":{"X":"-0,25","Y":"0","Z":"0",},
    "sca":{"X":"0","Y":"0","Z":"0",},
    "frames":1,
 };
 {
    "dibujo":"false",
    "nombre":"pata2",
    "tras":{"X":"0","Y":"-0,2","Z":"0",},
    "rot":{"X":"0,25","Y":"0","Z":"0",},
    "sca":{"X":"0","Y":"0","Z":"0",},
    "frames":1,
 };
 {
    "dibujo":"false",
    "nombre":"pata3",
    "tras":{"X":"0","Y":"-0,1","Z":"0",},
    "rot":{"X":"0,25","Y":"0","Z":"0",},
    "sca":{"X":"0","Y":"0","Z":"0",},
    "frames":1,
 };
 {
    "dibujo":"false",
    "nombre":"pata4",
    "tras":{"X":"0","Y":"0,2","Z":"0",},
    "rot":{"X":"-0,25","Y":"0","Z":"0",},
    "sca":{"X":"0","Y":"0","Z":"0",},
    "frames":1,
 };
 {
    "dibujo":"false",
    "nombre":"pata1",
    "tras":{"X":"0","Y":"0","Z":"0",},
    "rot":{"X":"-0,25","Y":"0","Z":"0",},
    "sca":{"X":"0","Y":"0","Z":"0",},
    "frames":1,
 };
 {
    "dibujo":"false",
    "nombre":"pata2",
    "tras":{"X":"0","Y":"0,25","Z":"0",},
    "rot":{"X":"-0,25","Y":"0","Z":"0",},
    "sca":{"X":"0","Y":"0","Z":"0",},
    "frames":1,
 };
 {
    "dibujo":"false",
    "nombre":"pata1",
    "tras":{"X":"0","Y":"0,05","Z":"0",},
    "rot":{"X":"0,5","Y":"0","Z":"0",},
    "sca":{"X":"0","Y":"0","Z":"0",},
    "frames":1,
 };
 {
    "dibujo":"false",
    "nombre":"pata3",
    "tras":{"X":"0","Y":"0,1","Z":"0",},
    "rot":{"X":"-0,25","Y":"0","Z":"0",},
    "sca":{"X":"0","Y":"0","Z":"0",},
    "frames":1,
 };
 {
    "dibujo":"true",
    "tras":{"X":"0","Y":"0","Z":"0,05",},
    "rot":{"X":"0","Y":"0","Z":"0",},
    "sca":{"X":"0","Y":"0","Z":"0",},
    "frames":1,
};
{
    "dibujo":"false",
    "nombre":"pata4",
    "tras":{"X":"0","Y":"0,25","Z":"0",},
    "rot":{"X":"-0,25","Y":"0","Z":"0",},
    "sca":{"X":"0","Y":"0","Z":"0",},
    "frames":1,
 };
 {
    "dibujo":"false",
    "nombre":"pata4",
    "tras":{"X":"0","Y":"-0,45","Z":"0",},
    "rot":{"X":"0,5","Y":"0","Z":"0",},
    "sca":{"X":"0","Y":"0","Z":"0",},
    "frames":1,
 };
 {
    "dibujo":"false",
    "nombre":"pata1",
    "tras":{"X":"0","Y":"-0,05","Z":"0",},
    "rot":{"X":"-0,25","Y":"0","Z":"0",},
    "sca":{"X":"0","Y":"0","Z":"0",},
    "frames":1,
 };
 {
    "dibujo":"false",
    "nombre":"pata2",
    "tras":{"X":"0","Y":"-0,2","Z":"0",},
    "rot":{"X":"0,25","Y":"0","Z":"0",},
    "sca":{"X":"0","Y":"0","Z":"0",},
    "frames":1,
 };
 {
    "dibujo":"false",
    "nombre":"pata3",
    "tras":{"X":"0","Y":"-0,1","Z":"0",},
    "rot":{"X":"0,25","Y":"0","Z":"0",},
    "sca":{"X":"0","Y":"0","Z":"0",},
    "frames":1,
 };
 {
    "dibujo":"false",
    "nombre":"pata4",
    "tras":{"X":"0","Y":"0,2","Z":"0",},
    "rot":{"X":"-0,25","Y":"0","Z":"0",},
    "sca":{"X":"0","Y":"0","Z":"0",},
    "frames":1,
 };
 {
    "dibujo":"false",
    "nombre":"pata1",
    "tras":{"X":"0","Y":"0","Z":"0",},
    "rot":{"X":"-0,25","Y":"0","Z":"0",},
    "sca":{"X":"0","Y":"0","Z":"0",},
    "frames":1,
 };
 {
    "dibujo":"false",
    "nombre":"pata2",
    "tras":{"X":"0","Y":"0,25","Z":"0",},
    "rot":{"X":"-0,25","Y":"0","Z":"0",},
    "sca":{"X":"0","Y":"0","Z":"0",},
    "frames":1,
 };
 {
    "dibujo":"false",
    "nombre":"pata1",
    "tras":{"X":"0","Y":"0,05","Z":"0",},
    "rot":{"X":"0,5","Y":"0","Z":"0",},
    "sca":{"X":"0","Y":"0","Z":"0",},
    "frames":1,
 };
 {
    "dibujo":"false",
    "nombre":"pata3",
    "tras":{"X":"0","Y":"0,1","Z":"0",},
    "rot":{"X":"-0,25","Y":"0","Z":"0",},
    "sca":{"X":"0","Y":"0","Z":"0",},
    "frames":1,
 };
 {
    "dibujo":"true",
    "tras":{"X":"0","Y":"0","Z":"0,05",},
    "rot":{"X":"0","Y":"0","Z":"0",},
    "sca":{"X":"0","Y":"0","Z":"0",},
    "frames":1,
};
{
    "dibujo":"false",
    "nombre":"pata4",
    "tras":{"X":"0","Y":"0,25","Z":"0",},
    "rot":{"X":"-0,25","Y":"0","Z":"0",},
    "sca":{"X":"0","Y":"0","Z":"0",},
    "frames":1,
 };
 {
    "dibujo":"false",
    "nombre":"pata4",
    "tras":{"X":"0","Y":"-0,45","Z":"0",},
    "rot":{"X":"0,5","Y":"0","Z":"0",},
    "sca":{"X":"0","Y":"0","Z":"0",},
    "frames":1,
 };
 {
    "dibujo":"false",
    "nombre":"pata1",
    "tras":{"X":"0","Y":"-0,05","Z":"0",},
    "rot":{"X":"-0,25","Y":"0","Z":"0",},
    "sca":{"X":"0","Y":"0","Z":"0",},
    "frames":1,
 };
 {
    "dibujo":"false",
    "nombre":"pata2",
    "tras":{"X":"0","Y":"-0,2","Z":"0",},
    "rot":{"X":"0,25","Y":"0","Z":"0",},
    "sca":{"X":"0","Y":"0","Z":"0",},
    "frames":1,
 };
 {
    "dibujo":"false",
    "nombre":"pata3",
    "tras":{"X":"0","Y":"-0,1","Z":"0",},
    "rot":{"X":"0,25","Y":"0","Z":"0",},
    "sca":{"X":"0","Y":"0","Z":"0",},
    "frames":1,
 };
 {
    "dibujo":"false",
    "nombre":"pata4",
    "tras":{"X":"0","Y":"0,2","Z":"0",},
    "rot":{"X":"-0,25","Y":"0","Z":"0",},
    "sca":{"X":"0","Y":"0","Z":"0",},
    "frames":1,
 };
 {
    "dibujo":"false",
    "nombre":"pata1",
    "tras":{"X":"0","Y":"0","Z":"0",},
    "rot":{"X":"-0,25","Y":"0","Z":"0",},
    "sca":{"X":"0","Y":"0","Z":"0",},
    "frames":1,
 };
 {
    "dibujo":"false",
    "nombre":"pata2",
    "tras":{"X":"0","Y":"0,2","Z":"0",},
    "rot":{"X":"-0,25","Y":"0","Z":"0",},
    "sca":{"X":"0","Y":"0","Z":"0",},
    "frames":1,
 };
 {
    "dibujo":"false",
    "nombre":"pata1",
    "tras":{"X":"0","Y":"0,05","Z":"0",},
    "rot":{"X":"0,5","Y":"0","Z":"0",},
    "sca":{"X":"0","Y":"0","Z":"0",},
    "frames":1,
 };
 {
    "dibujo":"false",
    "nombre":"pata3",
    "tras":{"X":"0","Y":"0,1","Z":"0",},
    "rot":{"X":"-0,25","Y":"0","Z":"0",},
    "sca":{"X":"0","Y":"0","Z":"0",},
    "frames":1,
 };
 {
    "dibujo":"true",
    "tras":{"X":"0","Y":"0","Z":"0,05",},
    "rot":{"X":"0","Y":"0","Z":"0",},
    "sca":{"X":"0","Y":"0","Z":"0",},
    "frames":1,
};
{
    "dibujo":"false",
    "nombre":"pata4",
    "tras":{"X":"0","Y":"0,25","Z":"0",},
    "rot":{"X":"-0,25","Y":"0","Z":"0",},
    "sca":{"X":"0","Y":"0","Z":"0",},
    "frames":1,
 };
 {
    "dibujo":"false",
    "nombre":"pata4",
    "tras":{"X":"0","Y":"-0,45","Z":"0",},
    "rot":{"X":"0,5","Y":"0","Z":"0",},
    "sca":{"X":"0","Y":"0","Z":"0",},
    "frames":1,
 };
 {
    "dibujo":"false",
    "nombre":"pata1",
    "tras":{"X":"0","Y":"-0,05","Z":"0",},
    "rot":{"X":"-0,25","Y":"0","Z":"0",},
    "sca":{"X":"0","Y":"0","Z":"0",},
    "frames":1,
 };
 {
    "dibujo":"false",
    "nombre":"pata2",
    "tras":{"X":"0","Y":"-0,15","Z":"0",},
    "rot":{"X":"0,25","Y":"0","Z":"0",},
    "sca":{"X":"0","Y":"0","Z":"0",},
    "frames":1,
 };
 {
    "dibujo":"false",
    "nombre":"pata3",
    "tras":{"X":"0","Y":"-0,1","Z":"0",},
    "rot":{"X":"0,25","Y":"0","Z":"0",},
    "sca":{"X":"0","Y":"0","Z":"0",},
    "frames":1,
 };
 {
    "dibujo":"false",
    "nombre":"pata4",
    "tras":{"X":"0","Y":"0,2","Z":"0",},
    "rot":{"X":"-0,25","Y":"0","Z":"0",},
    "sca":{"X":"0","Y":"0","Z":"0",},
    "frames":1,
 };{
    "dibujo":"false",
    "nombre":"pata1",
    "tras":{"X":"0","Y":"0","Z":"0",},
    "rot":{"X":"-0,25","Y":"0","Z":"0",},
    "sca":{"X":"0","Y":"0","Z":"0",},
    "frames":1,
 };
 {
    "dibujo":"false",
    "nombre":"pata2",
    "tras":{"X":"0","Y":"0,25","Z":"0",},
    "rot":{"X":"-0,25","Y":"0","Z":"0",},
    "sca":{"X":"0","Y":"0","Z":"0",},
    "frames":1,
 };
 {
    "dibujo":"false",
    "nombre":"pata1",
    "tras":{"X":"0","Y":"0,05","Z":"0",},
    "rot":{"X":"0,5","Y":"0","Z":"0",},
    "sca":{"X":"0","Y":"0","Z":"0",},
    "frames":1,
 };
 {
    "dibujo":"false",
    "nombre":"pata3",
    "tras":{"X":"0","Y":"0,1","Z":"0",},
    "rot":{"X":"-0,25","Y":"0","Z":"0",},
    "sca":{"X":"0","Y":"0","Z":"0",},
    "frames":1,
 };
 {
    "dibujo":"true",
    "tras":{"X":"0","Y":"0","Z":"0,05",},
    "rot":{"X":"0","Y":"0","Z":"0",},
    "sca":{"X":"0","Y":"0","Z":"0",},
    "frames":1,
};
{
    "dibujo":"false",
    "nombre":"pata4",
    "tras":{"X":"0","Y":"0,25","Z":"0",},
    "rot":{"X":"-0,25","Y":"0","Z":"0",},
    "sca":{"X":"0","Y":"0","Z":"0",},
    "frames":1,
 };
 {
    "dibujo":"false",
    "nombre":"pata4",
    "tras":{"X":"0","Y":"-0,45","Z":"0",},
    "rot":{"X":"0,5","Y":"0","Z":"0",},
    "sca":{"X":"0","Y":"0","Z":"0",},
    "frames":1,
 };
 {
    "dibujo":"false",
    "nombre":"pata1",
    "tras":{"X":"-0,25","Y":"-0,05","Z":"-0,25",},
    "rot":{"X":"-0,25","Y":"1,5695","Z":"0",},
    "sca":{"X":"0","Y":"0","Z":"0",},
    "frames":1,
 };
 {
    "dibujo":"false",
    "nombre":"pata2",
    "tras":{"X":"-1,05","Y":"-0,45","Z":"0,7",},
    "rot":{"X":"0,25","Y":"1,5695","Z":"0",},
    "sca":{"X":"0","Y":"0","Z":"0",},
    "frames":1,
 };
 {
    "dibujo":"false",
    "nombre":"pata3",
    "tras":{"X":"-1,09","Y":"-0,1","Z":"-0,7",},
    "rot":{"X":"0,25","Y":"1,5695","Z":"0",},
    "sca":{"X":"0","Y":"0","Z":"0",},
    "frames":1,
 };
 {
    "dibujo":"false",
    "nombre":"pata4",
    "tras":{"X":"-1,69","Y":"0,2","Z":"-0,1",},
    "rot":{"X":"-0,25","Y":"1,5695","Z":"0",},
    "sca":{"X":"0","Y":"0","Z":"0",},
    "frames":1,
 };
 {
    "dibujo":"true",
    "tras":{"X":"0","Y":"0","Z":"0",},
    "rot":{"X":"0","Y":"0,0625","Z":"0",},
    "sca":{"X":"0","Y":"0","Z":"0",},
    "frames":25,
};
{
    "dibujo":"false",
    "nombre":"pata3",
    "tras":{"X":"0,25","Y":"0","Z":"0",},
    "rot":{"X":"0","Y":"0","Z":"0",},
    "sca":{"X":"0","Y":"0","Z":"0",},
    "frames":1,
 };
 {
    "dibujo":"false",
    "nombre":"pata4",
    "tras":{"X":"0,1","Y":"0","Z":"0",},
    "rot":{"X":"0","Y":"0","Z":"0",},
    "sca":{"X":"0","Y":"0","Z":"0",},
    "frames":1,
 }